2019-05-20 17:22:24.994 +07:00 [INF] You are using the in-memory version of the persisted grant store. This will store consent decisions, authorization codes, refresh and reference tokens in memory only. If you are using any of those features in production, you want to switch to a different store implementation.
2019-05-20 17:22:25.033 +07:00 [INF] Using the default authentication scheme idsrv for IdentityServer
2019-05-20 17:22:25.036 +07:00 [DBG] Using idsrv as default ASP.NET Core scheme for authentication
2019-05-20 17:22:25.036 +07:00 [DBG] Using idsrv as default ASP.NET Core scheme for sign-in
2019-05-20 17:22:25.037 +07:00 [DBG] Using idsrv as default ASP.NET Core scheme for sign-out
2019-05-20 17:22:25.037 +07:00 [DBG] Using idsrv as default ASP.NET Core scheme for challenge
2019-05-20 17:22:25.037 +07:00 [DBG] Using idsrv as default ASP.NET Core scheme for forbid
2019-05-20 17:22:25.312 +07:00 [DBG] Login Url: /Account/Login
2019-05-20 17:22:25.315 +07:00 [DBG] Login Return Url Parameter: ReturnUrl
2019-05-20 17:22:25.315 +07:00 [DBG] Logout Url: /Account/Logout
2019-05-20 17:22:25.315 +07:00 [DBG] ConsentUrl Url: /consent
2019-05-20 17:22:25.315 +07:00 [DBG] Consent Return Url Parameter: returnUrl
2019-05-20 17:22:25.315 +07:00 [DBG] Error Url: /home/error
2019-05-20 17:22:25.315 +07:00 [DBG] Error Id Parameter: errorId
2019-05-20 17:22:41.422 +07:00 [DBG] Request path /.well-known/openid-configuration matched to endpoint type Discovery
2019-05-20 17:22:41.426 +07:00 [DBG] Endpoint enabled: Discovery, successfully created handler: IdentityServer4.Endpoints.DiscoveryEndpoint
2019-05-20 17:22:41.426 +07:00 [INF] Invoking IdentityServer endpoint: IdentityServer4.Endpoints.DiscoveryEndpoint for /.well-known/openid-configuration
2019-05-20 17:22:41.430 +07:00 [DBG] Start discovery request
2019-05-20 17:32:30.767 +07:00 [INF] You are using the in-memory version of the persisted grant store. This will store consent decisions, authorization codes, refresh and reference tokens in memory only. If you are using any of those features in production, you want to switch to a different store implementation.
2019-05-20 17:32:30.797 +07:00 [INF] Using the default authentication scheme idsrv for IdentityServer
2019-05-20 17:32:30.800 +07:00 [DBG] Using idsrv as default ASP.NET Core scheme for authentication
2019-05-20 17:32:30.800 +07:00 [DBG] Using idsrv as default ASP.NET Core scheme for sign-in
2019-05-20 17:32:30.800 +07:00 [DBG] Using idsrv as default ASP.NET Core scheme for sign-out
2019-05-20 17:32:30.800 +07:00 [DBG] Using idsrv as default ASP.NET Core scheme for challenge
2019-05-20 17:32:30.800 +07:00 [DBG] Using idsrv as default ASP.NET Core scheme for forbid
2019-05-20 17:32:31.068 +07:00 [DBG] Login Url: /Account/Login
2019-05-20 17:32:31.071 +07:00 [DBG] Login Return Url Parameter: ReturnUrl
2019-05-20 17:32:31.071 +07:00 [DBG] Logout Url: /Account/Logout
2019-05-20 17:32:31.071 +07:00 [DBG] ConsentUrl Url: /consent
2019-05-20 17:32:31.071 +07:00 [DBG] Consent Return Url Parameter: returnUrl
2019-05-20 17:32:31.071 +07:00 [DBG] Error Url: /home/error
2019-05-20 17:32:31.071 +07:00 [DBG] Error Id Parameter: errorId
2019-05-20 17:33:58.275 +07:00 [INF] You are using the in-memory version of the persisted grant store. This will store consent decisions, authorization codes, refresh and reference tokens in memory only. If you are using any of those features in production, you want to switch to a different store implementation.
2019-05-20 17:33:58.304 +07:00 [INF] Using the default authentication scheme idsrv for IdentityServer
2019-05-20 17:33:58.307 +07:00 [DBG] Using idsrv as default ASP.NET Core scheme for authentication
2019-05-20 17:33:58.307 +07:00 [DBG] Using idsrv as default ASP.NET Core scheme for sign-in
2019-05-20 17:33:58.307 +07:00 [DBG] Using idsrv as default ASP.NET Core scheme for sign-out
2019-05-20 17:33:58.307 +07:00 [DBG] Using idsrv as default ASP.NET Core scheme for challenge
2019-05-20 17:33:58.308 +07:00 [DBG] Using idsrv as default ASP.NET Core scheme for forbid
2019-05-20 17:39:56.076 +07:00 [DBG] Login Url: /Account/Login
2019-05-20 17:39:56.078 +07:00 [DBG] Login Return Url Parameter: ReturnUrl
2019-05-20 17:39:56.078 +07:00 [DBG] Logout Url: /Account/Logout
2019-05-20 17:39:56.079 +07:00 [DBG] ConsentUrl Url: /consent
2019-05-20 17:39:56.079 +07:00 [DBG] Consent Return Url Parameter: returnUrl
2019-05-20 17:39:56.079 +07:00 [DBG] Error Url: /home/error
2019-05-20 17:39:56.079 +07:00 [DBG] Error Id Parameter: errorId
2019-05-20 17:39:56.100 +07:00 [DBG] Request path /.well-known/openid-configuration matched to endpoint type Discovery
2019-05-20 17:39:56.105 +07:00 [DBG] Endpoint enabled: Discovery, successfully created handler: IdentityServer4.Endpoints.DiscoveryEndpoint
2019-05-20 17:39:56.109 +07:00 [INF] Invoking IdentityServer endpoint: IdentityServer4.Endpoints.DiscoveryEndpoint for /.well-known/openid-configuration
2019-05-20 17:39:56.116 +07:00 [DBG] Start discovery request
2019-05-20 17:39:56.251 +07:00 [DBG] Request path /.well-known/openid-configuration/jwks matched to endpoint type Discovery
2019-05-20 17:39:56.253 +07:00 [DBG] Endpoint enabled: Discovery, successfully created handler: IdentityServer4.Endpoints.DiscoveryKeyEndpoint
2019-05-20 17:39:56.256 +07:00 [INF] Invoking IdentityServer endpoint: IdentityServer4.Endpoints.DiscoveryKeyEndpoint for /.well-known/openid-configuration/jwks
2019-05-20 17:39:56.272 +07:00 [DBG] Start key discovery request
2019-05-20 17:39:56.476 +07:00 [DBG] Request path /connect/token matched to endpoint type Token
2019-05-20 17:39:56.484 +07:00 [DBG] Endpoint enabled: Token, successfully created handler: IdentityServer4.Endpoints.TokenEndpoint
2019-05-20 17:39:56.486 +07:00 [INF] Invoking IdentityServer endpoint: IdentityServer4.Endpoints.TokenEndpoint for /connect/token
2019-05-20 17:39:56.494 +07:00 [DBG] Start token request.
2019-05-20 17:39:56.500 +07:00 [DBG] Start client validation
2019-05-20 17:39:56.506 +07:00 [DBG] Start parsing Basic Authentication secret
2019-05-20 17:39:56.509 +07:00 [DBG] Start parsing for secret in post body
2019-05-20 17:39:56.536 +07:00 [DBG] Parser found secret: PostBodySecretParser
2019-05-20 17:39:56.537 +07:00 [DBG] Secret id found: client
2019-05-20 17:39:56.551 +07:00 [DBG] client configuration validation for client client succeeded.
2019-05-20 17:39:56.559 +07:00 [DBG] Secret validator success: HashedSharedSecretValidator
2019-05-20 17:39:56.560 +07:00 [DBG] Client validation success
2019-05-20 17:39:56.579 +07:00 [DBG] Start token request validation
2019-05-20 17:39:56.586 +07:00 [DBG] Start client credentials token request validation
2019-05-20 17:39:56.612 +07:00 [DBG] client credentials token request validation success
2019-05-20 17:39:56.624 +07:00 [INF] Token request validation success
{"ClientId":"client","ClientName":null,"GrantType":"client_credentials","Scopes":"api1","AuthorizationCode":null,"RefreshToken":null,"UserName":null,"AuthenticationContextReferenceClasses":null,"Tenant":null,"IdP":null,"Raw":{"grant_type":"client_credentials","scope":"api1","client_id":"client","client_secret":"***REDACTED***"},"$type":"TokenRequestValidationLog"}
2019-05-20 17:39:56.666 +07:00 [DBG] Getting claims for access token for client: client
2019-05-20 17:39:56.724 +07:00 [DBG] Token request success.
2019-05-20 17:39:56.977 +07:00 [DBG] Request path /.well-known/openid-configuration matched to endpoint type Discovery
2019-05-20 17:39:56.979 +07:00 [DBG] Endpoint enabled: Discovery, successfully created handler: IdentityServer4.Endpoints.DiscoveryEndpoint
2019-05-20 17:39:56.986 +07:00 [INF] Invoking IdentityServer endpoint: IdentityServer4.Endpoints.DiscoveryEndpoint for /.well-known/openid-configuration
2019-05-20 17:39:56.988 +07:00 [DBG] Start discovery request
2019-05-20 17:39:57.092 +07:00 [DBG] Request path /.well-known/openid-configuration/jwks matched to endpoint type Discovery
2019-05-20 17:39:57.094 +07:00 [DBG] Endpoint enabled: Discovery, successfully created handler: IdentityServer4.Endpoints.DiscoveryKeyEndpoint
2019-05-20 17:39:57.101 +07:00 [INF] Invoking IdentityServer endpoint: IdentityServer4.Endpoints.DiscoveryKeyEndpoint for /.well-known/openid-configuration/jwks
2019-05-20 17:39:57.105 +07:00 [DBG] Start key discovery request
2019-05-20 18:02:15.411 +07:00 [INF] You are using the in-memory version of the persisted grant store. This will store consent decisions, authorization codes, refresh and reference tokens in memory only. If you are using any of those features in production, you want to switch to a different store implementation.
2019-05-20 18:02:15.445 +07:00 [INF] Using the default authentication scheme idsrv for IdentityServer
2019-05-20 18:02:15.448 +07:00 [DBG] Using idsrv as default ASP.NET Core scheme for authentication
2019-05-20 18:02:15.448 +07:00 [DBG] Using idsrv as default ASP.NET Core scheme for sign-in
2019-05-20 18:02:15.448 +07:00 [DBG] Using idsrv as default ASP.NET Core scheme for sign-out
2019-05-20 18:02:15.448 +07:00 [DBG] Using idsrv as default ASP.NET Core scheme for challenge
2019-05-20 18:02:15.448 +07:00 [DBG] Using idsrv as default ASP.NET Core scheme for forbid
2019-05-20 18:02:15.716 +07:00 [DBG] Login Url: /Account/Login
2019-05-20 18:02:15.718 +07:00 [DBG] Login Return Url Parameter: ReturnUrl
2019-05-20 18:02:15.719 +07:00 [DBG] Logout Url: /Account/Logout
2019-05-20 18:02:15.719 +07:00 [DBG] ConsentUrl Url: /consent
2019-05-20 18:02:15.719 +07:00 [DBG] Consent Return Url Parameter: returnUrl
2019-05-20 18:02:15.719 +07:00 [DBG] Error Url: /home/error
2019-05-20 18:02:15.719 +07:00 [DBG] Error Id Parameter: errorId
2019-05-20 18:02:15.744 +07:00 [DBG] Request path /.well-known/openid-configuration matched to endpoint type Discovery
2019-05-20 18:02:15.748 +07:00 [DBG] Endpoint enabled: Discovery, successfully created handler: IdentityServer4.Endpoints.DiscoveryEndpoint
2019-05-20 18:02:15.748 +07:00 [INF] Invoking IdentityServer endpoint: IdentityServer4.Endpoints.DiscoveryEndpoint for /.well-known/openid-configuration
2019-05-20 18:02:15.753 +07:00 [DBG] Start discovery request
2019-05-20 18:03:24.530 +07:00 [DBG] Request path /.well-known/openid-configuration matched to endpoint type Discovery
2019-05-20 18:03:24.531 +07:00 [DBG] Endpoint enabled: Discovery, successfully created handler: IdentityServer4.Endpoints.DiscoveryEndpoint
2019-05-20 18:03:24.531 +07:00 [INF] Invoking IdentityServer endpoint: IdentityServer4.Endpoints.DiscoveryEndpoint for /.well-known/openid-configuration
2019-05-20 18:03:24.531 +07:00 [DBG] Start discovery request
2019-05-20 18:03:24.606 +07:00 [DBG] Request path /.well-known/openid-configuration/jwks matched to endpoint type Discovery
2019-05-20 18:03:24.607 +07:00 [DBG] Endpoint enabled: Discovery, successfully created handler: IdentityServer4.Endpoints.DiscoveryKeyEndpoint
2019-05-20 18:03:24.607 +07:00 [INF] Invoking IdentityServer endpoint: IdentityServer4.Endpoints.DiscoveryKeyEndpoint for /.well-known/openid-configuration/jwks
2019-05-20 18:03:24.610 +07:00 [DBG] Start key discovery request
2019-05-20 18:03:24.678 +07:00 [DBG] Request path /connect/authorize matched to endpoint type Authorize
2019-05-20 18:03:24.680 +07:00 [DBG] Endpoint enabled: Authorize, successfully created handler: IdentityServer4.Endpoints.AuthorizeEndpoint
2019-05-20 18:03:24.680 +07:00 [INF] Invoking IdentityServer endpoint: IdentityServer4.Endpoints.AuthorizeEndpoint for /connect/authorize
2019-05-20 18:03:24.684 +07:00 [DBG] Start authorize request
2019-05-20 18:03:24.698 +07:00 [DBG] No user present in authorize request
2019-05-20 18:03:24.703 +07:00 [DBG] Start authorize request protocol validation
2019-05-20 18:03:24.719 +07:00 [DBG] client configuration validation for client mvc succeeded.
2019-05-20 18:03:24.734 +07:00 [ERR] Invalid redirect_uri: https://localhost:5005/signin-oidc
{"ClientId":"mvc","ClientName":"MVC Client","RedirectUri":null,"AllowedRedirectUris":["http://localhost:5002/signin-oidc"],"SubjectId":"anonymous","ResponseType":null,"ResponseMode":null,"GrantType":null,"RequestedScopes":"","State":null,"UiLocales":null,"Nonce":null,"AuthenticationContextReferenceClasses":null,"DisplayMode":null,"PromptMode":null,"MaxAge":null,"LoginHint":null,"SessionId":null,"Raw":{"client_id":"mvc","redirect_uri":"https://localhost:5005/signin-oidc","response_type":"id_token","scope":"openid profile","response_mode":"form_post","nonce":"636939470046404921.ODhiNmQ4YjQtNjBkMS00NWI0LTg5NTYtZDUyYmQ2NGRiZDZmMTc2Y2FlMmYtYTc3ZC00YjlkLTlhMmYtMzg3MmNlMjMxNjNj","state":"CfDJ8OZ4lQd9IvhDqaosY4UuPgtLNuq8kmUh6AhbqgfMod1HncWwhuiierEEaFm_hmHz6cRCf-nqBwzZfHZCHLRFbPEnAelVCyPs2JLic8Q99547UyEyHc5TNP_DNh1Ll5Efh3ZZk71_pbp2jwnuF-yaWIdJhNpuR-UhBAp08ncODBH32ynXdmqLtzif91N4nsa2DBWJJt0mA8f_0iT7nUJUYlRhnyD1-XkBQ9so7I7WgterO_XH4lKNfq7SH7Zl1n8eUiQnWdHkHLffJNOYhxqd_3tXFo7f73wo7HNlXIQ7lSjDNyjgKmf9Oix7zbXIChcfUg","x-client-SKU":"ID_NETSTANDARD2_0","x-client-ver":"5.3.0.0"},"$type":"AuthorizeRequestValidationLog"}
2019-05-20 18:03:24.748 +07:00 [ERR] Request validation failed
2019-05-20 18:03:24.749 +07:00 [INF] {"ClientId":"mvc","ClientName":"MVC Client","RedirectUri":null,"AllowedRedirectUris":["http://localhost:5002/signin-oidc"],"SubjectId":"anonymous","ResponseType":null,"ResponseMode":null,"GrantType":null,"RequestedScopes":"","State":null,"UiLocales":null,"Nonce":null,"AuthenticationContextReferenceClasses":null,"DisplayMode":null,"PromptMode":null,"MaxAge":null,"LoginHint":null,"SessionId":null,"Raw":{"client_id":"mvc","redirect_uri":"https://localhost:5005/signin-oidc","response_type":"id_token","scope":"openid profile","response_mode":"form_post","nonce":"636939470046404921.ODhiNmQ4YjQtNjBkMS00NWI0LTg5NTYtZDUyYmQ2NGRiZDZmMTc2Y2FlMmYtYTc3ZC00YjlkLTlhMmYtMzg3MmNlMjMxNjNj","state":"CfDJ8OZ4lQd9IvhDqaosY4UuPgtLNuq8kmUh6AhbqgfMod1HncWwhuiierEEaFm_hmHz6cRCf-nqBwzZfHZCHLRFbPEnAelVCyPs2JLic8Q99547UyEyHc5TNP_DNh1Ll5Efh3ZZk71_pbp2jwnuF-yaWIdJhNpuR-UhBAp08ncODBH32ynXdmqLtzif91N4nsa2DBWJJt0mA8f_0iT7nUJUYlRhnyD1-XkBQ9so7I7WgterO_XH4lKNfq7SH7Zl1n8eUiQnWdHkHLffJNOYhxqd_3tXFo7f73wo7HNlXIQ7lSjDNyjgKmf9Oix7zbXIChcfUg","x-client-SKU":"ID_NETSTANDARD2_0","x-client-ver":"5.3.0.0"},"$type":"AuthorizeRequestValidationLog"}
2019-05-20 18:04:39.748 +07:00 [INF] You are using the in-memory version of the persisted grant store. This will store consent decisions, authorization codes, refresh and reference tokens in memory only. If you are using any of those features in production, you want to switch to a different store implementation.
2019-05-20 18:04:39.781 +07:00 [INF] Using the default authentication scheme idsrv for IdentityServer
2019-05-20 18:04:39.784 +07:00 [DBG] Using idsrv as default ASP.NET Core scheme for authentication
2019-05-20 18:04:39.784 +07:00 [DBG] Using idsrv as default ASP.NET Core scheme for sign-in
2019-05-20 18:04:39.784 +07:00 [DBG] Using idsrv as default ASP.NET Core scheme for sign-out
2019-05-20 18:04:39.784 +07:00 [DBG] Using idsrv as default ASP.NET Core scheme for challenge
2019-05-20 18:04:39.784 +07:00 [DBG] Using idsrv as default ASP.NET Core scheme for forbid
2019-05-20 18:04:40.289 +07:00 [DBG] Login Url: /Account/Login
2019-05-20 18:04:40.291 +07:00 [DBG] Login Return Url Parameter: ReturnUrl
2019-05-20 18:04:40.291 +07:00 [DBG] Logout Url: /Account/Logout
2019-05-20 18:04:40.291 +07:00 [DBG] ConsentUrl Url: /consent
2019-05-20 18:04:40.291 +07:00 [DBG] Consent Return Url Parameter: returnUrl
2019-05-20 18:04:40.291 +07:00 [DBG] Error Url: /home/error
2019-05-20 18:04:40.291 +07:00 [DBG] Error Id Parameter: errorId
2019-05-20 18:05:09.539 +07:00 [DBG] Request path /.well-known/openid-configuration matched to endpoint type Discovery
2019-05-20 18:05:09.543 +07:00 [DBG] Endpoint enabled: Discovery, successfully created handler: IdentityServer4.Endpoints.DiscoveryEndpoint
2019-05-20 18:05:09.543 +07:00 [INF] Invoking IdentityServer endpoint: IdentityServer4.Endpoints.DiscoveryEndpoint for /.well-known/openid-configuration
2019-05-20 18:05:09.546 +07:00 [DBG] Start discovery request
2019-05-20 18:05:09.662 +07:00 [DBG] Request path /.well-known/openid-configuration/jwks matched to endpoint type Discovery
2019-05-20 18:05:09.662 +07:00 [DBG] Endpoint enabled: Discovery, successfully created handler: IdentityServer4.Endpoints.DiscoveryKeyEndpoint
2019-05-20 18:05:09.662 +07:00 [INF] Invoking IdentityServer endpoint: IdentityServer4.Endpoints.DiscoveryKeyEndpoint for /.well-known/openid-configuration/jwks
2019-05-20 18:05:09.666 +07:00 [DBG] Start key discovery request
2019-05-20 18:05:09.722 +07:00 [DBG] Request path /connect/authorize matched to endpoint type Authorize
2019-05-20 18:05:09.725 +07:00 [DBG] Endpoint enabled: Authorize, successfully created handler: IdentityServer4.Endpoints.AuthorizeEndpoint
2019-05-20 18:05:09.725 +07:00 [INF] Invoking IdentityServer endpoint: IdentityServer4.Endpoints.AuthorizeEndpoint for /connect/authorize
2019-05-20 18:05:09.734 +07:00 [DBG] Start authorize request
2019-05-20 18:05:09.748 +07:00 [DBG] No user present in authorize request
2019-05-20 18:05:09.753 +07:00 [DBG] Start authorize request protocol validation
2019-05-20 18:05:09.777 +07:00 [DBG] client configuration validation for client mvc succeeded.
2019-05-20 18:05:09.806 +07:00 [DBG] Calling into custom validator: IdentityServer4.Validation.DefaultCustomAuthorizeRequestValidator
2019-05-20 18:05:09.819 +07:00 [INF] ValidatedAuthorizeRequest
{"ClientId":"mvc","ClientName":"MVC Client","RedirectUri":"https://localhost:5005/signin-oidc","AllowedRedirectUris":["https://localhost:5005/signin-oidc"],"SubjectId":"anonymous","ResponseType":"id_token","ResponseMode":"form_post","GrantType":"implicit","RequestedScopes":"openid profile","State":"CfDJ8OZ4lQd9IvhDqaosY4UuPgvQq9B3D6yvidVeBs_n-TnWbJUZQfUq6y-ltNz4aKBd2G3HZ8xGijFTVTeh5CvbUrxn_rKUrWnuuU_CeoBhzTgi0416PbCrZK4qwvcXiOP6078mJVZ0T7cG0v_p4hZ3k8MJqycHEJFq0u58fjE5B3Vk8oz67LywB0ua3bAAQj9wq7cmPJ5ZX8cLhtWf0DlOxM-Qn4EjJbdiylYHGnpxrdvUSGe7hQnEBG6nJNd1QIShqa6L27BMSub1DovBqvo1MBiqptUT9_v8gmCxM95FHmaOjiDmLgAul0HBY4SKpCioTg","UiLocales":null,"Nonce":"636939471096961353.Yjc4MzVmOTAtOWViMi00MzJiLWIwNmItZDRjZmYxZjU4YjMwOTFhZDNhZWEtZDA3OS00NDQ3LWIwZGYtOTAwM2FjNjU4NDM4","AuthenticationContextReferenceClasses":null,"DisplayMode":null,"PromptMode":null,"MaxAge":null,"LoginHint":null,"SessionId":null,"Raw":{"client_id":"mvc","redirect_uri":"https://localhost:5005/signin-oidc","response_type":"id_token","scope":"openid profile","response_mode":"form_post","nonce":"636939471096961353.Yjc4MzVmOTAtOWViMi00MzJiLWIwNmItZDRjZmYxZjU4YjMwOTFhZDNhZWEtZDA3OS00NDQ3LWIwZGYtOTAwM2FjNjU4NDM4","state":"CfDJ8OZ4lQd9IvhDqaosY4UuPgvQq9B3D6yvidVeBs_n-TnWbJUZQfUq6y-ltNz4aKBd2G3HZ8xGijFTVTeh5CvbUrxn_rKUrWnuuU_CeoBhzTgi0416PbCrZK4qwvcXiOP6078mJVZ0T7cG0v_p4hZ3k8MJqycHEJFq0u58fjE5B3Vk8oz67LywB0ua3bAAQj9wq7cmPJ5ZX8cLhtWf0DlOxM-Qn4EjJbdiylYHGnpxrdvUSGe7hQnEBG6nJNd1QIShqa6L27BMSub1DovBqvo1MBiqptUT9_v8gmCxM95FHmaOjiDmLgAul0HBY4SKpCioTg","x-client-SKU":"ID_NETSTANDARD2_0","x-client-ver":"5.3.0.0"},"$type":"AuthorizeRequestValidationLog"}
2019-05-20 18:05:09.838 +07:00 [INF] Showing login: User is not authenticated
2019-05-20 18:05:09.927 +07:00 [DBG] Start authorize request protocol validation
2019-05-20 18:05:09.927 +07:00 [DBG] client configuration validation for client mvc succeeded.
2019-05-20 18:05:09.928 +07:00 [DBG] Calling into custom validator: IdentityServer4.Validation.DefaultCustomAuthorizeRequestValidator
2019-05-20 18:05:09.931 +07:00 [DBG] client configuration validation for client mvc succeeded.
2019-05-20 18:07:30.275 +07:00 [DBG] Request path /connect/authorize matched to endpoint type Authorize
2019-05-20 18:07:30.284 +07:00 [DBG] Endpoint enabled: Authorize, successfully created handler: IdentityServer4.Endpoints.AuthorizeEndpoint
2019-05-20 18:07:30.284 +07:00 [INF] Invoking IdentityServer endpoint: IdentityServer4.Endpoints.AuthorizeEndpoint for /connect/authorize
2019-05-20 18:07:30.284 +07:00 [DBG] Start authorize request
2019-05-20 18:07:30.285 +07:00 [DBG] No user present in authorize request
2019-05-20 18:07:30.285 +07:00 [DBG] Start authorize request protocol validation
2019-05-20 18:07:30.285 +07:00 [DBG] client configuration validation for client mvc succeeded.
2019-05-20 18:07:30.285 +07:00 [DBG] Calling into custom validator: IdentityServer4.Validation.DefaultCustomAuthorizeRequestValidator
2019-05-20 18:07:30.285 +07:00 [INF] ValidatedAuthorizeRequest
{"ClientId":"mvc","ClientName":"MVC Client","RedirectUri":"https://localhost:5005/signin-oidc","AllowedRedirectUris":["https://localhost:5005/signin-oidc"],"SubjectId":"anonymous","ResponseType":"id_token","ResponseMode":"form_post","GrantType":"implicit","RequestedScopes":"openid profile","State":"CfDJ8OZ4lQd9IvhDqaosY4UuPgu9ps1hfEOE04_mTDMS6SlzC1GRHS8j_CbloOCSMCOGEQwA0t8_8S845hok5RBT9-ya_YeJDZM0nBCWw-eRF5-RcwGs00l6UPvGT5SHG62DjmR6DXelkJXvFbhj2HVlX5U4Zck6mz-i8EpWJFJ438dfd2YdjIA9D5MKUURb8vil5yJsGTCyZrIcQxwI6Y5bcyxWAZfyZV7EmB5gs0IVlsS4KTbHF4VLGo8S0Sv7QRtj6zw-83SDWvPLX0Dlx6NODk-yTLn5kXP-oBC5dScZaApzxruQY5-0kMRr7pUaRAaiCQ","UiLocales":null,"Nonce":"636939472501978735.NGI0ODBhYzAtYWFhZS00Y2E1LWEwOGMtMzBlMmNkNjFkYTNlM2Q3ZjBiN2MtNDdlZS00MDU0LTlkMTQtYzI4OTFjOWE1M2Iw","AuthenticationContextReferenceClasses":null,"DisplayMode":null,"PromptMode":null,"MaxAge":null,"LoginHint":null,"SessionId":null,"Raw":{"client_id":"mvc","redirect_uri":"https://localhost:5005/signin-oidc","response_type":"id_token","scope":"openid profile","response_mode":"form_post","nonce":"636939472501978735.NGI0ODBhYzAtYWFhZS00Y2E1LWEwOGMtMzBlMmNkNjFkYTNlM2Q3ZjBiN2MtNDdlZS00MDU0LTlkMTQtYzI4OTFjOWE1M2Iw","state":"CfDJ8OZ4lQd9IvhDqaosY4UuPgu9ps1hfEOE04_mTDMS6SlzC1GRHS8j_CbloOCSMCOGEQwA0t8_8S845hok5RBT9-ya_YeJDZM0nBCWw-eRF5-RcwGs00l6UPvGT5SHG62DjmR6DXelkJXvFbhj2HVlX5U4Zck6mz-i8EpWJFJ438dfd2YdjIA9D5MKUURb8vil5yJsGTCyZrIcQxwI6Y5bcyxWAZfyZV7EmB5gs0IVlsS4KTbHF4VLGo8S0Sv7QRtj6zw-83SDWvPLX0Dlx6NODk-yTLn5kXP-oBC5dScZaApzxruQY5-0kMRr7pUaRAaiCQ","x-client-SKU":"ID_NETSTANDARD2_0","x-client-ver":"5.3.0.0"},"$type":"AuthorizeRequestValidationLog"}
2019-05-20 18:07:30.285 +07:00 [INF] Showing login: User is not authenticated
2019-05-20 18:07:56.650 +07:00 [DBG] Start authorize request protocol validation
2019-05-20 18:07:56.650 +07:00 [DBG] client configuration validation for client mvc succeeded.
2019-05-20 18:07:56.650 +07:00 [DBG] Calling into custom validator: IdentityServer4.Validation.DefaultCustomAuthorizeRequestValidator
2019-05-20 18:08:08.375 +07:00 [DBG] client configuration validation for client mvc succeeded.
2019-05-20 18:09:53.828 +07:00 [DBG] CORS request made for path: /Account/Login from origin: null but was ignored because path was not for an allowed IdentityServer CORS endpoint
2019-05-20 18:10:01.758 +07:00 [DBG] Start authorize request protocol validation
2019-05-20 18:10:01.759 +07:00 [DBG] client configuration validation for client mvc succeeded.
2019-05-20 18:10:01.759 +07:00 [DBG] Calling into custom validator: IdentityServer4.Validation.DefaultCustomAuthorizeRequestValidator
2019-05-20 18:10:07.973 +07:00 [DBG] Start authorize request protocol validation
2019-05-20 18:10:07.973 +07:00 [DBG] client configuration validation for client mvc succeeded.
2019-05-20 18:10:07.973 +07:00 [DBG] Calling into custom validator: IdentityServer4.Validation.DefaultCustomAuthorizeRequestValidator
2019-05-20 18:10:07.973 +07:00 [DBG] client configuration validation for client mvc succeeded.
2019-05-20 18:10:25.569 +07:00 [DBG] CORS request made for path: /Account/Login from origin: null but was ignored because path was not for an allowed IdentityServer CORS endpoint
2019-05-20 18:10:29.977 +07:00 [DBG] Start authorize request protocol validation
2019-05-20 18:10:29.978 +07:00 [DBG] client configuration validation for client mvc succeeded.
2019-05-20 18:10:29.978 +07:00 [DBG] Calling into custom validator: IdentityServer4.Validation.DefaultCustomAuthorizeRequestValidator
2019-05-20 18:10:29.993 +07:00 [DBG] Augmenting SignInContext
2019-05-20 18:10:29.995 +07:00 [DBG] Adding idp claim with value: local
2019-05-20 18:10:29.995 +07:00 [DBG] Adding amr claim with value: pwd
2019-05-20 18:10:30.006 +07:00 [INF] AuthenticationScheme: idsrv signed in.
2019-05-20 18:10:30.008 +07:00 [DBG] client configuration validation for client mvc succeeded.
2019-05-20 18:10:30.020 +07:00 [DBG] Request path /connect/authorize/callback matched to endpoint type Authorize
2019-05-20 18:10:30.021 +07:00 [DBG] Endpoint enabled: Authorize, successfully created handler: IdentityServer4.Endpoints.AuthorizeCallbackEndpoint
2019-05-20 18:10:30.021 +07:00 [INF] Invoking IdentityServer endpoint: IdentityServer4.Endpoints.AuthorizeCallbackEndpoint for /connect/authorize/callback
2019-05-20 18:10:30.027 +07:00 [DBG] Start authorize callback request
2019-05-20 18:10:30.032 +07:00 [DBG] User in authorize request: 2
2019-05-20 18:10:30.032 +07:00 [DBG] Start authorize request protocol validation
2019-05-20 18:10:30.032 +07:00 [DBG] client configuration validation for client mvc succeeded.
2019-05-20 18:10:30.032 +07:00 [DBG] Calling into custom validator: IdentityServer4.Validation.DefaultCustomAuthorizeRequestValidator
2019-05-20 18:10:30.032 +07:00 [INF] ValidatedAuthorizeRequest
{"ClientId":"mvc","ClientName":"MVC Client","RedirectUri":"https://localhost:5005/signin-oidc","AllowedRedirectUris":["https://localhost:5005/signin-oidc"],"SubjectId":"2","ResponseType":"id_token","ResponseMode":"form_post","GrantType":"implicit","RequestedScopes":"openid profile","State":"CfDJ8OZ4lQd9IvhDqaosY4UuPgu9ps1hfEOE04_mTDMS6SlzC1GRHS8j_CbloOCSMCOGEQwA0t8_8S845hok5RBT9-ya_YeJDZM0nBCWw-eRF5-RcwGs00l6UPvGT5SHG62DjmR6DXelkJXvFbhj2HVlX5U4Zck6mz-i8EpWJFJ438dfd2YdjIA9D5MKUURb8vil5yJsGTCyZrIcQxwI6Y5bcyxWAZfyZV7EmB5gs0IVlsS4KTbHF4VLGo8S0Sv7QRtj6zw-83SDWvPLX0Dlx6NODk-yTLn5kXP-oBC5dScZaApzxruQY5-0kMRr7pUaRAaiCQ","UiLocales":null,"Nonce":"636939472501978735.NGI0ODBhYzAtYWFhZS00Y2E1LWEwOGMtMzBlMmNkNjFkYTNlM2Q3ZjBiN2MtNDdlZS00MDU0LTlkMTQtYzI4OTFjOWE1M2Iw","AuthenticationContextReferenceClasses":null,"DisplayMode":null,"PromptMode":null,"MaxAge":null,"LoginHint":null,"SessionId":"350ef410d8492622ce7242a02471e4d8","Raw":{"client_id":"mvc","redirect_uri":"https://localhost:5005/signin-oidc","response_type":"id_token","scope":"openid profile","response_mode":"form_post","nonce":"636939472501978735.NGI0ODBhYzAtYWFhZS00Y2E1LWEwOGMtMzBlMmNkNjFkYTNlM2Q3ZjBiN2MtNDdlZS00MDU0LTlkMTQtYzI4OTFjOWE1M2Iw","state":"CfDJ8OZ4lQd9IvhDqaosY4UuPgu9ps1hfEOE04_mTDMS6SlzC1GRHS8j_CbloOCSMCOGEQwA0t8_8S845hok5RBT9-ya_YeJDZM0nBCWw-eRF5-RcwGs00l6UPvGT5SHG62DjmR6DXelkJXvFbhj2HVlX5U4Zck6mz-i8EpWJFJ438dfd2YdjIA9D5MKUURb8vil5yJsGTCyZrIcQxwI6Y5bcyxWAZfyZV7EmB5gs0IVlsS4KTbHF4VLGo8S0Sv7QRtj6zw-83SDWvPLX0Dlx6NODk-yTLn5kXP-oBC5dScZaApzxruQY5-0kMRr7pUaRAaiCQ","x-client-SKU":"ID_NETSTANDARD2_0","x-client-ver":"5.3.0.0"},"$type":"AuthorizeRequestValidationLog"}
2019-05-20 18:10:30.033 +07:00 [DBG] IsActive called from: AuthorizeEndpoint
2019-05-20 18:10:30.048 +07:00 [DBG] user_consent grant with value: mvc|2 not found in store.
2019-05-20 18:10:30.048 +07:00 [DBG] Found no prior consent from consent store, consent is required
2019-05-20 18:10:30.048 +07:00 [INF] Showing consent: User has not yet consented
2019-05-20 18:10:30.105 +07:00 [DBG] Start authorize request protocol validation
2019-05-20 18:10:30.105 +07:00 [DBG] client configuration validation for client mvc succeeded.
2019-05-20 18:10:30.105 +07:00 [DBG] Calling into custom validator: IdentityServer4.Validation.DefaultCustomAuthorizeRequestValidator
2019-05-20 18:10:30.105 +07:00 [DBG] client configuration validation for client mvc succeeded.
2019-05-20 18:10:32.584 +07:00 [DBG] CORS request made for path: /consent from origin: null but was ignored because path was not for an allowed IdentityServer CORS endpoint
2019-05-20 18:10:32.648 +07:00 [DBG] Start authorize request protocol validation
2019-05-20 18:10:32.648 +07:00 [DBG] client configuration validation for client mvc succeeded.
2019-05-20 18:10:32.648 +07:00 [DBG] Calling into custom validator: IdentityServer4.Validation.DefaultCustomAuthorizeRequestValidator
2019-05-20 18:10:32.661 +07:00 [DBG] client configuration validation for client mvc succeeded.
2019-05-20 18:10:32.666 +07:00 [DBG] Request path /connect/authorize/callback matched to endpoint type Authorize
2019-05-20 18:10:32.666 +07:00 [DBG] Endpoint enabled: Authorize, successfully created handler: IdentityServer4.Endpoints.AuthorizeCallbackEndpoint
2019-05-20 18:10:32.666 +07:00 [INF] Invoking IdentityServer endpoint: IdentityServer4.Endpoints.AuthorizeCallbackEndpoint for /connect/authorize/callback
2019-05-20 18:10:32.666 +07:00 [DBG] Start authorize callback request
2019-05-20 18:10:32.671 +07:00 [DBG] User in authorize request: 2
2019-05-20 18:10:32.671 +07:00 [DBG] Start authorize request protocol validation
2019-05-20 18:10:32.671 +07:00 [DBG] client configuration validation for client mvc succeeded.
2019-05-20 18:10:32.671 +07:00 [DBG] Calling into custom validator: IdentityServer4.Validation.DefaultCustomAuthorizeRequestValidator
2019-05-20 18:10:32.671 +07:00 [INF] ValidatedAuthorizeRequest
{"ClientId":"mvc","ClientName":"MVC Client","RedirectUri":"https://localhost:5005/signin-oidc","AllowedRedirectUris":["https://localhost:5005/signin-oidc"],"SubjectId":"2","ResponseType":"id_token","ResponseMode":"form_post","GrantType":"implicit","RequestedScopes":"openid profile","State":"CfDJ8OZ4lQd9IvhDqaosY4UuPgu9ps1hfEOE04_mTDMS6SlzC1GRHS8j_CbloOCSMCOGEQwA0t8_8S845hok5RBT9-ya_YeJDZM0nBCWw-eRF5-RcwGs00l6UPvGT5SHG62DjmR6DXelkJXvFbhj2HVlX5U4Zck6mz-i8EpWJFJ438dfd2YdjIA9D5MKUURb8vil5yJsGTCyZrIcQxwI6Y5bcyxWAZfyZV7EmB5gs0IVlsS4KTbHF4VLGo8S0Sv7QRtj6zw-83SDWvPLX0Dlx6NODk-yTLn5kXP-oBC5dScZaApzxruQY5-0kMRr7pUaRAaiCQ","UiLocales":null,"Nonce":"636939472501978735.NGI0ODBhYzAtYWFhZS00Y2E1LWEwOGMtMzBlMmNkNjFkYTNlM2Q3ZjBiN2MtNDdlZS00MDU0LTlkMTQtYzI4OTFjOWE1M2Iw","AuthenticationContextReferenceClasses":null,"DisplayMode":null,"PromptMode":null,"MaxAge":null,"LoginHint":null,"SessionId":"350ef410d8492622ce7242a02471e4d8","Raw":{"client_id":"mvc","redirect_uri":"https://localhost:5005/signin-oidc","response_type":"id_token","scope":"openid profile","response_mode":"form_post","nonce":"636939472501978735.NGI0ODBhYzAtYWFhZS00Y2E1LWEwOGMtMzBlMmNkNjFkYTNlM2Q3ZjBiN2MtNDdlZS00MDU0LTlkMTQtYzI4OTFjOWE1M2Iw","state":"CfDJ8OZ4lQd9IvhDqaosY4UuPgu9ps1hfEOE04_mTDMS6SlzC1GRHS8j_CbloOCSMCOGEQwA0t8_8S845hok5RBT9-ya_YeJDZM0nBCWw-eRF5-RcwGs00l6UPvGT5SHG62DjmR6DXelkJXvFbhj2HVlX5U4Zck6mz-i8EpWJFJ438dfd2YdjIA9D5MKUURb8vil5yJsGTCyZrIcQxwI6Y5bcyxWAZfyZV7EmB5gs0IVlsS4KTbHF4VLGo8S0Sv7QRtj6zw-83SDWvPLX0Dlx6NODk-yTLn5kXP-oBC5dScZaApzxruQY5-0kMRr7pUaRAaiCQ","x-client-SKU":"ID_NETSTANDARD2_0","x-client-ver":"5.3.0.0"},"$type":"AuthorizeRequestValidationLog"}
2019-05-20 18:10:32.671 +07:00 [DBG] IsActive called from: AuthorizeEndpoint
2019-05-20 18:10:32.672 +07:00 [DBG] user_consent grant with value: mvc|2 not found in store.
2019-05-20 18:10:32.672 +07:00 [DBG] Found no prior consent from consent store, consent is required
2019-05-20 18:10:32.678 +07:00 [INF] User consented to scopes: ["openid","profile"]
2019-05-20 18:10:32.679 +07:00 [DBG] User indicated to remember consent for scopes: ["openid","profile"]
2019-05-20 18:10:32.682 +07:00 [DBG] Client allows remembering consent, and consent given. Updating consent store for subject: 2
2019-05-20 18:10:32.694 +07:00 [DBG] Creating Implicit Flow response.
2019-05-20 18:10:32.702 +07:00 [DBG] Getting claims for identity token for subject: 2 and client: mvc
2019-05-20 18:10:32.707 +07:00 [DBG] Get profile called for subject 2 from client MVC Client with claim types ["name","family_name","given_name","middle_name","nickname","preferred_username","profile","picture","website","gender","birthdate","zoneinfo","locale","updated_at"] via ClaimsProviderIdentityToken
2019-05-20 18:10:32.709 +07:00 [DBG] Issued claims: []
2019-05-20 18:10:32.801 +07:00 [INF] Authorize endpoint response
{"SubjectId":"2","ClientId":"mvc","RedirectUri":"https://localhost:5005/signin-oidc","State":"CfDJ8OZ4lQd9IvhDqaosY4UuPgu9ps1hfEOE04_mTDMS6SlzC1GRHS8j_CbloOCSMCOGEQwA0t8_8S845hok5RBT9-ya_YeJDZM0nBCWw-eRF5-RcwGs00l6UPvGT5SHG62DjmR6DXelkJXvFbhj2HVlX5U4Zck6mz-i8EpWJFJ438dfd2YdjIA9D5MKUURb8vil5yJsGTCyZrIcQxwI6Y5bcyxWAZfyZV7EmB5gs0IVlsS4KTbHF4VLGo8S0Sv7QRtj6zw-83SDWvPLX0Dlx6NODk-yTLn5kXP-oBC5dScZaApzxruQY5-0kMRr7pUaRAaiCQ","Scope":"openid profile","Error":null,"ErrorDescription":null,"$type":"AuthorizeResponseLog"}
2019-05-20 18:10:32.816 +07:00 [DBG] Augmenting SignInContext
2019-05-20 18:10:32.816 +07:00 [INF] AuthenticationScheme: idsrv signed in.
2019-05-20 18:13:28.390 +07:00 [INF] You are using the in-memory version of the persisted grant store. This will store consent decisions, authorization codes, refresh and reference tokens in memory only. If you are using any of those features in production, you want to switch to a different store implementation.
2019-05-20 18:13:28.425 +07:00 [INF] Using the default authentication scheme idsrv for IdentityServer
2019-05-20 18:13:28.428 +07:00 [DBG] Using idsrv as default ASP.NET Core scheme for authentication
2019-05-20 18:13:28.428 +07:00 [DBG] Using idsrv as default ASP.NET Core scheme for sign-in
2019-05-20 18:13:28.428 +07:00 [DBG] Using idsrv as default ASP.NET Core scheme for sign-out
2019-05-20 18:13:28.428 +07:00 [DBG] Using idsrv as default ASP.NET Core scheme for challenge
2019-05-20 18:13:28.428 +07:00 [DBG] Using idsrv as default ASP.NET Core scheme for forbid
2019-05-20 18:13:29.019 +07:00 [DBG] Login Url: /Account/Login
2019-05-20 18:13:29.021 +07:00 [DBG] Login Return Url Parameter: ReturnUrl
2019-05-20 18:13:29.021 +07:00 [DBG] Logout Url: /Account/Logout
2019-05-20 18:13:29.021 +07:00 [DBG] ConsentUrl Url: /consent
2019-05-20 18:13:29.021 +07:00 [DBG] Consent Return Url Parameter: returnUrl
2019-05-20 18:13:29.021 +07:00 [DBG] Error Url: /home/error
2019-05-20 18:13:29.021 +07:00 [DBG] Error Id Parameter: errorId
2019-05-20 18:14:07.260 +07:00 [DBG] Request path /connect/authorize matched to endpoint type Authorize
2019-05-20 18:14:07.264 +07:00 [DBG] Endpoint enabled: Authorize, successfully created handler: IdentityServer4.Endpoints.AuthorizeEndpoint
2019-05-20 18:14:07.264 +07:00 [INF] Invoking IdentityServer endpoint: IdentityServer4.Endpoints.AuthorizeEndpoint for /connect/authorize
2019-05-20 18:14:07.268 +07:00 [DBG] Start authorize request
2019-05-20 18:14:07.280 +07:00 [DBG] No user present in authorize request
2019-05-20 18:14:07.285 +07:00 [DBG] Start authorize request protocol validation
2019-05-20 18:14:07.305 +07:00 [DBG] client configuration validation for client mvc succeeded.
2019-05-20 18:14:07.341 +07:00 [DBG] Calling into custom validator: IdentityServer4.Validation.DefaultCustomAuthorizeRequestValidator
2019-05-20 18:14:07.355 +07:00 [INF] ValidatedAuthorizeRequest
{"ClientId":"mvc","ClientName":"MVC Client","RedirectUri":"https://localhost:5005/signin-oidc","AllowedRedirectUris":["https://localhost:5005/signin-oidc"],"SubjectId":"anonymous","ResponseType":"id_token","ResponseMode":"form_post","GrantType":"implicit","RequestedScopes":"openid profile","State":"CfDJ8OZ4lQd9IvhDqaosY4UuPgt5FPEirtX-Ve2I_YxKyJlbFLSaLCtcMeSckvU9m7KR6wHqtDe3hDWPVsfimT6YBhW9zTaJCKVF5-P0N-6sMHoSuRP6XWaWbfl0EWKFsrtMWb7XyHoueL_kC_6IqvGAduNyva6zDJb_-horNZK3Q6NGOrr-UPJ9ShuG8p8DHMc7Q-tfMHxzXcebbBRQckWbo0x5-e4xwX704tWN5bO9BtxPZ0FehgAXqLGGeBTQW5RkHLQfRnucWy8V5SvfEgan4B3gGZi1P-jn0MRMEWuIyEOOJnQhRvKK57PnByRjgu03pA","UiLocales":null,"Nonce":"636939476472362083.NjNmODM5ZDgtOThmOS00YWFhLTljZDktMzNjOGY1ZWUzNThiYzdjMGEwMDctNTY3Yi00YWFlLTljZDQtMTcwMWY3ZTZlYzk0","AuthenticationContextReferenceClasses":null,"DisplayMode":null,"PromptMode":null,"MaxAge":null,"LoginHint":null,"SessionId":null,"Raw":{"client_id":"mvc","redirect_uri":"https://localhost:5005/signin-oidc","response_type":"id_token","scope":"openid profile","response_mode":"form_post","nonce":"636939476472362083.NjNmODM5ZDgtOThmOS00YWFhLTljZDktMzNjOGY1ZWUzNThiYzdjMGEwMDctNTY3Yi00YWFlLTljZDQtMTcwMWY3ZTZlYzk0","state":"CfDJ8OZ4lQd9IvhDqaosY4UuPgt5FPEirtX-Ve2I_YxKyJlbFLSaLCtcMeSckvU9m7KR6wHqtDe3hDWPVsfimT6YBhW9zTaJCKVF5-P0N-6sMHoSuRP6XWaWbfl0EWKFsrtMWb7XyHoueL_kC_6IqvGAduNyva6zDJb_-horNZK3Q6NGOrr-UPJ9ShuG8p8DHMc7Q-tfMHxzXcebbBRQckWbo0x5-e4xwX704tWN5bO9BtxPZ0FehgAXqLGGeBTQW5RkHLQfRnucWy8V5SvfEgan4B3gGZi1P-jn0MRMEWuIyEOOJnQhRvKK57PnByRjgu03pA","x-client-SKU":"ID_NETSTANDARD2_0","x-client-ver":"5.3.0.0"},"$type":"AuthorizeRequestValidationLog"}
2019-05-20 18:14:07.372 +07:00 [INF] Showing login: User is not authenticated
2019-05-20 18:14:10.096 +07:00 [DBG] Start authorize request protocol validation
2019-05-20 18:14:10.096 +07:00 [DBG] client configuration validation for client mvc succeeded.
2019-05-20 18:14:10.096 +07:00 [DBG] Calling into custom validator: IdentityServer4.Validation.DefaultCustomAuthorizeRequestValidator
2019-05-20 18:14:10.100 +07:00 [DBG] client configuration validation for client mvc succeeded.
2019-05-20 18:14:35.198 +07:00 [INF] AuthenticationScheme: Google was challenged.
2019-05-20 18:15:06.707 +07:00 [INF] AuthenticationScheme: idsrv.external signed in.
2019-05-20 18:15:31.077 +07:00 [DBG] Augmenting SignInContext
2019-05-20 18:15:31.080 +07:00 [DBG] Adding amr claim with value: external
2019-05-20 18:15:31.085 +07:00 [INF] AuthenticationScheme: idsrv signed in.
2019-05-20 18:15:31.643 +07:00 [INF] AuthenticationScheme: idsrv.external signed out.
2019-05-20 18:15:34.632 +07:00 [DBG] Start authorize request protocol validation
2019-05-20 18:15:34.632 +07:00 [DBG] client configuration validation for client mvc succeeded.
2019-05-20 18:15:34.632 +07:00 [DBG] Calling into custom validator: IdentityServer4.Validation.DefaultCustomAuthorizeRequestValidator
2019-05-20 18:15:36.986 +07:00 [DBG] client configuration validation for client mvc succeeded.
2019-05-20 18:15:44.312 +07:00 [DBG] Request path /connect/authorize/callback matched to endpoint type Authorize
2019-05-20 18:15:44.313 +07:00 [DBG] Endpoint enabled: Authorize, successfully created handler: IdentityServer4.Endpoints.AuthorizeCallbackEndpoint
2019-05-20 18:15:44.313 +07:00 [INF] Invoking IdentityServer endpoint: IdentityServer4.Endpoints.AuthorizeCallbackEndpoint for /connect/authorize/callback
2019-05-20 18:15:44.318 +07:00 [DBG] Start authorize callback request
2019-05-20 18:15:44.322 +07:00 [DBG] User in authorize request: a66e5d201b8f35767df7879d9cd7f85d8737ed29052f8669b524178bede237fe
2019-05-20 18:15:44.322 +07:00 [DBG] Start authorize request protocol validation
2019-05-20 18:15:44.322 +07:00 [DBG] client configuration validation for client mvc succeeded.
2019-05-20 18:15:44.323 +07:00 [DBG] Calling into custom validator: IdentityServer4.Validation.DefaultCustomAuthorizeRequestValidator
2019-05-20 18:15:44.323 +07:00 [INF] ValidatedAuthorizeRequest
{"ClientId":"mvc","ClientName":"MVC Client","RedirectUri":"https://localhost:5005/signin-oidc","AllowedRedirectUris":["https://localhost:5005/signin-oidc"],"SubjectId":"a66e5d201b8f35767df7879d9cd7f85d8737ed29052f8669b524178bede237fe","ResponseType":"id_token","ResponseMode":"form_post","GrantType":"implicit","RequestedScopes":"openid profile","State":"CfDJ8OZ4lQd9IvhDqaosY4UuPgt5FPEirtX-Ve2I_YxKyJlbFLSaLCtcMeSckvU9m7KR6wHqtDe3hDWPVsfimT6YBhW9zTaJCKVF5-P0N-6sMHoSuRP6XWaWbfl0EWKFsrtMWb7XyHoueL_kC_6IqvGAduNyva6zDJb_-horNZK3Q6NGOrr-UPJ9ShuG8p8DHMc7Q-tfMHxzXcebbBRQckWbo0x5-e4xwX704tWN5bO9BtxPZ0FehgAXqLGGeBTQW5RkHLQfRnucWy8V5SvfEgan4B3gGZi1P-jn0MRMEWuIyEOOJnQhRvKK57PnByRjgu03pA","UiLocales":null,"Nonce":"636939476472362083.NjNmODM5ZDgtOThmOS00YWFhLTljZDktMzNjOGY1ZWUzNThiYzdjMGEwMDctNTY3Yi00YWFlLTljZDQtMTcwMWY3ZTZlYzk0","AuthenticationContextReferenceClasses":null,"DisplayMode":null,"PromptMode":null,"MaxAge":null,"LoginHint":null,"SessionId":"cd6679946b6d973bba20fa9e4cc1052a","Raw":{"client_id":"mvc","redirect_uri":"https://localhost:5005/signin-oidc","response_type":"id_token","scope":"openid profile","response_mode":"form_post","nonce":"636939476472362083.NjNmODM5ZDgtOThmOS00YWFhLTljZDktMzNjOGY1ZWUzNThiYzdjMGEwMDctNTY3Yi00YWFlLTljZDQtMTcwMWY3ZTZlYzk0","state":"CfDJ8OZ4lQd9IvhDqaosY4UuPgt5FPEirtX-Ve2I_YxKyJlbFLSaLCtcMeSckvU9m7KR6wHqtDe3hDWPVsfimT6YBhW9zTaJCKVF5-P0N-6sMHoSuRP6XWaWbfl0EWKFsrtMWb7XyHoueL_kC_6IqvGAduNyva6zDJb_-horNZK3Q6NGOrr-UPJ9ShuG8p8DHMc7Q-tfMHxzXcebbBRQckWbo0x5-e4xwX704tWN5bO9BtxPZ0FehgAXqLGGeBTQW5RkHLQfRnucWy8V5SvfEgan4B3gGZi1P-jn0MRMEWuIyEOOJnQhRvKK57PnByRjgu03pA","x-client-SKU":"ID_NETSTANDARD2_0","x-client-ver":"5.3.0.0"},"$type":"AuthorizeRequestValidationLog"}
2019-05-20 18:15:44.324 +07:00 [DBG] IsActive called from: AuthorizeEndpoint
2019-05-20 18:15:44.336 +07:00 [DBG] user_consent grant with value: mvc|a66e5d201b8f35767df7879d9cd7f85d8737ed29052f8669b524178bede237fe not found in store.
2019-05-20 18:15:44.336 +07:00 [DBG] Found no prior consent from consent store, consent is required
2019-05-20 18:15:44.336 +07:00 [INF] Showing consent: User has not yet consented
2019-05-20 18:15:44.386 +07:00 [DBG] Start authorize request protocol validation
2019-05-20 18:15:44.386 +07:00 [DBG] client configuration validation for client mvc succeeded.
2019-05-20 18:15:44.386 +07:00 [DBG] Calling into custom validator: IdentityServer4.Validation.DefaultCustomAuthorizeRequestValidator
2019-05-20 18:15:44.386 +07:00 [DBG] client configuration validation for client mvc succeeded.
2019-05-20 18:15:47.792 +07:00 [DBG] CORS request made for path: /consent from origin: null but was ignored because path was not for an allowed IdentityServer CORS endpoint
2019-05-20 18:15:47.849 +07:00 [DBG] Start authorize request protocol validation
2019-05-20 18:15:47.850 +07:00 [DBG] client configuration validation for client mvc succeeded.
2019-05-20 18:15:47.850 +07:00 [DBG] Calling into custom validator: IdentityServer4.Validation.DefaultCustomAuthorizeRequestValidator
2019-05-20 18:15:47.867 +07:00 [DBG] client configuration validation for client mvc succeeded.
2019-05-20 18:15:47.871 +07:00 [DBG] Request path /connect/authorize/callback matched to endpoint type Authorize
2019-05-20 18:15:47.871 +07:00 [DBG] Endpoint enabled: Authorize, successfully created handler: IdentityServer4.Endpoints.AuthorizeCallbackEndpoint
2019-05-20 18:15:47.871 +07:00 [INF] Invoking IdentityServer endpoint: IdentityServer4.Endpoints.AuthorizeCallbackEndpoint for /connect/authorize/callback
2019-05-20 18:15:47.872 +07:00 [DBG] Start authorize callback request
2019-05-20 18:15:47.876 +07:00 [DBG] User in authorize request: a66e5d201b8f35767df7879d9cd7f85d8737ed29052f8669b524178bede237fe
2019-05-20 18:15:47.876 +07:00 [DBG] Start authorize request protocol validation
2019-05-20 18:15:47.876 +07:00 [DBG] client configuration validation for client mvc succeeded.
2019-05-20 18:15:47.876 +07:00 [DBG] Calling into custom validator: IdentityServer4.Validation.DefaultCustomAuthorizeRequestValidator
2019-05-20 18:15:47.876 +07:00 [INF] ValidatedAuthorizeRequest
{"ClientId":"mvc","ClientName":"MVC Client","RedirectUri":"https://localhost:5005/signin-oidc","AllowedRedirectUris":["https://localhost:5005/signin-oidc"],"SubjectId":"a66e5d201b8f35767df7879d9cd7f85d8737ed29052f8669b524178bede237fe","ResponseType":"id_token","ResponseMode":"form_post","GrantType":"implicit","RequestedScopes":"openid profile","State":"CfDJ8OZ4lQd9IvhDqaosY4UuPgt5FPEirtX-Ve2I_YxKyJlbFLSaLCtcMeSckvU9m7KR6wHqtDe3hDWPVsfimT6YBhW9zTaJCKVF5-P0N-6sMHoSuRP6XWaWbfl0EWKFsrtMWb7XyHoueL_kC_6IqvGAduNyva6zDJb_-horNZK3Q6NGOrr-UPJ9ShuG8p8DHMc7Q-tfMHxzXcebbBRQckWbo0x5-e4xwX704tWN5bO9BtxPZ0FehgAXqLGGeBTQW5RkHLQfRnucWy8V5SvfEgan4B3gGZi1P-jn0MRMEWuIyEOOJnQhRvKK57PnByRjgu03pA","UiLocales":null,"Nonce":"636939476472362083.NjNmODM5ZDgtOThmOS00YWFhLTljZDktMzNjOGY1ZWUzNThiYzdjMGEwMDctNTY3Yi00YWFlLTljZDQtMTcwMWY3ZTZlYzk0","AuthenticationContextReferenceClasses":null,"DisplayMode":null,"PromptMode":null,"MaxAge":null,"LoginHint":null,"SessionId":"cd6679946b6d973bba20fa9e4cc1052a","Raw":{"client_id":"mvc","redirect_uri":"https://localhost:5005/signin-oidc","response_type":"id_token","scope":"openid profile","response_mode":"form_post","nonce":"636939476472362083.NjNmODM5ZDgtOThmOS00YWFhLTljZDktMzNjOGY1ZWUzNThiYzdjMGEwMDctNTY3Yi00YWFlLTljZDQtMTcwMWY3ZTZlYzk0","state":"CfDJ8OZ4lQd9IvhDqaosY4UuPgt5FPEirtX-Ve2I_YxKyJlbFLSaLCtcMeSckvU9m7KR6wHqtDe3hDWPVsfimT6YBhW9zTaJCKVF5-P0N-6sMHoSuRP6XWaWbfl0EWKFsrtMWb7XyHoueL_kC_6IqvGAduNyva6zDJb_-horNZK3Q6NGOrr-UPJ9ShuG8p8DHMc7Q-tfMHxzXcebbBRQckWbo0x5-e4xwX704tWN5bO9BtxPZ0FehgAXqLGGeBTQW5RkHLQfRnucWy8V5SvfEgan4B3gGZi1P-jn0MRMEWuIyEOOJnQhRvKK57PnByRjgu03pA","x-client-SKU":"ID_NETSTANDARD2_0","x-client-ver":"5.3.0.0"},"$type":"AuthorizeRequestValidationLog"}
2019-05-20 18:15:47.876 +07:00 [DBG] IsActive called from: AuthorizeEndpoint
2019-05-20 18:15:47.876 +07:00 [DBG] user_consent grant with value: mvc|a66e5d201b8f35767df7879d9cd7f85d8737ed29052f8669b524178bede237fe not found in store.
2019-05-20 18:15:47.876 +07:00 [DBG] Found no prior consent from consent store, consent is required
2019-05-20 18:15:47.884 +07:00 [INF] User consented to scopes: ["openid","profile"]
2019-05-20 18:15:47.885 +07:00 [DBG] User indicated to remember consent for scopes: ["openid","profile"]
2019-05-20 18:15:47.888 +07:00 [DBG] Client allows remembering consent, and consent given. Updating consent store for subject: a66e5d201b8f35767df7879d9cd7f85d8737ed29052f8669b524178bede237fe
2019-05-20 18:15:47.901 +07:00 [DBG] Creating Implicit Flow response.
2019-05-20 18:15:47.908 +07:00 [DBG] Getting claims for identity token for subject: a66e5d201b8f35767df7879d9cd7f85d8737ed29052f8669b524178bede237fe and client: mvc
2019-05-20 18:15:47.913 +07:00 [DBG] Get profile called for subject a66e5d201b8f35767df7879d9cd7f85d8737ed29052f8669b524178bede237fe from client MVC Client with claim types ["name","family_name","given_name","middle_name","nickname","preferred_username","profile","picture","website","gender","birthdate","zoneinfo","locale","updated_at"] via ClaimsProviderIdentityToken
2019-05-20 18:15:47.914 +07:00 [DBG] Issued claims: ["name","given_name","family_name"]
2019-05-20 18:15:47.985 +07:00 [INF] Authorize endpoint response
{"SubjectId":"a66e5d201b8f35767df7879d9cd7f85d8737ed29052f8669b524178bede237fe","ClientId":"mvc","RedirectUri":"https://localhost:5005/signin-oidc","State":"CfDJ8OZ4lQd9IvhDqaosY4UuPgt5FPEirtX-Ve2I_YxKyJlbFLSaLCtcMeSckvU9m7KR6wHqtDe3hDWPVsfimT6YBhW9zTaJCKVF5-P0N-6sMHoSuRP6XWaWbfl0EWKFsrtMWb7XyHoueL_kC_6IqvGAduNyva6zDJb_-horNZK3Q6NGOrr-UPJ9ShuG8p8DHMc7Q-tfMHxzXcebbBRQckWbo0x5-e4xwX704tWN5bO9BtxPZ0FehgAXqLGGeBTQW5RkHLQfRnucWy8V5SvfEgan4B3gGZi1P-jn0MRMEWuIyEOOJnQhRvKK57PnByRjgu03pA","Scope":"openid profile","Error":null,"ErrorDescription":null,"$type":"AuthorizeResponseLog"}
2019-05-20 18:15:47.999 +07:00 [DBG] Augmenting SignInContext
2019-05-20 18:15:47.999 +07:00 [INF] AuthenticationScheme: idsrv signed in.
2019-05-20 18:31:09.417 +07:00 [INF] You are using the in-memory version of the persisted grant store. This will store consent decisions, authorization codes, refresh and reference tokens in memory only. If you are using any of those features in production, you want to switch to a different store implementation.
2019-05-20 18:31:09.449 +07:00 [INF] Using the default authentication scheme idsrv for IdentityServer
2019-05-20 18:31:09.452 +07:00 [DBG] Using idsrv as default ASP.NET Core scheme for authentication
2019-05-20 18:31:09.452 +07:00 [DBG] Using idsrv as default ASP.NET Core scheme for sign-in
2019-05-20 18:31:09.452 +07:00 [DBG] Using idsrv as default ASP.NET Core scheme for sign-out
2019-05-20 18:31:09.452 +07:00 [DBG] Using idsrv as default ASP.NET Core scheme for challenge
2019-05-20 18:31:09.453 +07:00 [DBG] Using idsrv as default ASP.NET Core scheme for forbid
2019-05-20 18:31:09.986 +07:00 [DBG] Login Url: /Account/Login
2019-05-20 18:31:09.988 +07:00 [DBG] Login Return Url Parameter: ReturnUrl
2019-05-20 18:31:09.988 +07:00 [DBG] Logout Url: /Account/Logout
2019-05-20 18:31:09.988 +07:00 [DBG] ConsentUrl Url: /consent
2019-05-20 18:31:09.988 +07:00 [DBG] Consent Return Url Parameter: returnUrl
2019-05-20 18:31:09.988 +07:00 [DBG] Error Url: /home/error
2019-05-20 18:31:09.988 +07:00 [DBG] Error Id Parameter: errorId
2019-05-20 18:31:47.214 +07:00 [DBG] Request path /.well-known/openid-configuration matched to endpoint type Discovery
2019-05-20 18:31:47.217 +07:00 [DBG] Endpoint enabled: Discovery, successfully created handler: IdentityServer4.Endpoints.DiscoveryEndpoint
2019-05-20 18:31:47.217 +07:00 [INF] Invoking IdentityServer endpoint: IdentityServer4.Endpoints.DiscoveryEndpoint for /.well-known/openid-configuration
2019-05-20 18:31:47.220 +07:00 [DBG] Start discovery request
2019-05-20 18:31:47.333 +07:00 [DBG] Request path /.well-known/openid-configuration/jwks matched to endpoint type Discovery
2019-05-20 18:31:47.341 +07:00 [DBG] Endpoint enabled: Discovery, successfully created handler: IdentityServer4.Endpoints.DiscoveryKeyEndpoint
2019-05-20 18:31:47.341 +07:00 [INF] Invoking IdentityServer endpoint: IdentityServer4.Endpoints.DiscoveryKeyEndpoint for /.well-known/openid-configuration/jwks
2019-05-20 18:31:47.344 +07:00 [DBG] Start key discovery request
2019-05-20 18:31:47.388 +07:00 [DBG] Request path /connect/authorize matched to endpoint type Authorize
2019-05-20 18:31:47.393 +07:00 [DBG] Endpoint enabled: Authorize, successfully created handler: IdentityServer4.Endpoints.AuthorizeEndpoint
2019-05-20 18:31:47.393 +07:00 [INF] Invoking IdentityServer endpoint: IdentityServer4.Endpoints.AuthorizeEndpoint for /connect/authorize
2019-05-20 18:31:47.397 +07:00 [DBG] Start authorize request
2019-05-20 18:31:47.405 +07:00 [DBG] No user present in authorize request
2019-05-20 18:31:47.410 +07:00 [DBG] Start authorize request protocol validation
2019-05-20 18:31:47.435 +07:00 [DBG] client configuration validation for client mvc succeeded.
2019-05-20 18:31:47.467 +07:00 [DBG] Calling into custom validator: IdentityServer4.Validation.DefaultCustomAuthorizeRequestValidator
2019-05-20 18:31:47.482 +07:00 [INF] ValidatedAuthorizeRequest
{"ClientId":"mvc","ClientName":"MVC Client","RedirectUri":"https://localhost:5005/signin-oidc","AllowedRedirectUris":["https://localhost:5005/signin-oidc"],"SubjectId":"anonymous","ResponseType":"id_token","ResponseMode":"form_post","GrantType":"implicit","RequestedScopes":"openid profile","State":"CfDJ8OZ4lQd9IvhDqaosY4UuPgtPBr2CZ-C6Wb6Zu1pOWPlMzCFmy_F7Sc6sHDORWzxA3Qyy2mnP0yfkW-dpGDE03ECHXXIPafxx7oAdky9Y63G7rfzZQJ2zFmdrVK0dcYC9ZD5dkSA5O2oBxVHEVu5sFKYy6VF0JkKEhPDRZASPBcY7fFBdakQdACrN4msppKiVzXDGm_Fvc8N2oaWQbOY1J3LC_2A0lSBT1Bb2h5hA9ugyRDd-o3PruDbeiARaHaQ-qczKl-epDKeRozTP0ZlO4v6gaMEi8WynBWbT9BeFisNQT5LGvRgjyOTWwS_dW-ZaBw","UiLocales":null,"Nonce":"636939487073733482.NDE1MGU5OTQtYWI0Ny00ZTU1LTg3YTQtNjllM2Y1MGY5MjlmMWQxYzgzYmYtNzYwYi00M2JhLTgyZWYtNGExNWYyYWYxOTAz","AuthenticationContextReferenceClasses":null,"DisplayMode":null,"PromptMode":null,"MaxAge":null,"LoginHint":null,"SessionId":null,"Raw":{"client_id":"mvc","redirect_uri":"https://localhost:5005/signin-oidc","response_type":"id_token","scope":"openid profile","response_mode":"form_post","nonce":"636939487073733482.NDE1MGU5OTQtYWI0Ny00ZTU1LTg3YTQtNjllM2Y1MGY5MjlmMWQxYzgzYmYtNzYwYi00M2JhLTgyZWYtNGExNWYyYWYxOTAz","state":"CfDJ8OZ4lQd9IvhDqaosY4UuPgtPBr2CZ-C6Wb6Zu1pOWPlMzCFmy_F7Sc6sHDORWzxA3Qyy2mnP0yfkW-dpGDE03ECHXXIPafxx7oAdky9Y63G7rfzZQJ2zFmdrVK0dcYC9ZD5dkSA5O2oBxVHEVu5sFKYy6VF0JkKEhPDRZASPBcY7fFBdakQdACrN4msppKiVzXDGm_Fvc8N2oaWQbOY1J3LC_2A0lSBT1Bb2h5hA9ugyRDd-o3PruDbeiARaHaQ-qczKl-epDKeRozTP0ZlO4v6gaMEi8WynBWbT9BeFisNQT5LGvRgjyOTWwS_dW-ZaBw","x-client-SKU":"ID_NETSTANDARD2_0","x-client-ver":"5.3.0.0"},"$type":"AuthorizeRequestValidationLog"}
2019-05-20 18:31:47.502 +07:00 [INF] Showing login: User is not authenticated
2019-05-20 18:31:50.381 +07:00 [DBG] Start authorize request protocol validation
2019-05-20 18:31:50.381 +07:00 [DBG] client configuration validation for client mvc succeeded.
2019-05-20 18:31:50.381 +07:00 [DBG] Calling into custom validator: IdentityServer4.Validation.DefaultCustomAuthorizeRequestValidator
2019-05-20 18:31:50.384 +07:00 [DBG] client configuration validation for client mvc succeeded.
2019-05-20 18:35:19.543 +07:00 [INF] You are using the in-memory version of the persisted grant store. This will store consent decisions, authorization codes, refresh and reference tokens in memory only. If you are using any of those features in production, you want to switch to a different store implementation.
2019-05-20 18:35:19.573 +07:00 [INF] Using the default authentication scheme idsrv for IdentityServer
2019-05-20 18:35:19.575 +07:00 [DBG] Using idsrv as default ASP.NET Core scheme for authentication
2019-05-20 18:35:19.575 +07:00 [DBG] Using idsrv as default ASP.NET Core scheme for sign-in
2019-05-20 18:35:19.576 +07:00 [DBG] Using idsrv as default ASP.NET Core scheme for sign-out
2019-05-20 18:35:19.576 +07:00 [DBG] Using idsrv as default ASP.NET Core scheme for challenge
2019-05-20 18:35:19.576 +07:00 [DBG] Using idsrv as default ASP.NET Core scheme for forbid
2019-05-20 18:35:19.982 +07:00 [DBG] Login Url: /Account/Login
2019-05-20 18:35:19.985 +07:00 [DBG] Login Return Url Parameter: ReturnUrl
2019-05-20 18:35:19.985 +07:00 [DBG] Logout Url: /Account/Logout
2019-05-20 18:35:19.985 +07:00 [DBG] ConsentUrl Url: /consent
2019-05-20 18:35:19.985 +07:00 [DBG] Consent Return Url Parameter: returnUrl
2019-05-20 18:35:19.985 +07:00 [DBG] Error Url: /home/error
2019-05-20 18:35:19.985 +07:00 [DBG] Error Id Parameter: errorId
2019-05-20 18:35:53.177 +07:00 [DBG] Request path /connect/authorize matched to endpoint type Authorize
2019-05-20 18:35:53.182 +07:00 [DBG] Endpoint enabled: Authorize, successfully created handler: IdentityServer4.Endpoints.AuthorizeEndpoint
2019-05-20 18:35:53.182 +07:00 [INF] Invoking IdentityServer endpoint: IdentityServer4.Endpoints.AuthorizeEndpoint for /connect/authorize
2019-05-20 18:35:53.188 +07:00 [DBG] Start authorize request
2019-05-20 18:35:53.199 +07:00 [DBG] No user present in authorize request
2019-05-20 18:35:53.203 +07:00 [DBG] Start authorize request protocol validation
2019-05-20 18:35:53.221 +07:00 [DBG] client configuration validation for client mvc succeeded.
2019-05-20 18:35:53.272 +07:00 [ERR] Nonce required for implicit and hybrid flow with openid scope
{"ClientId":"mvc","ClientName":"MVC Client","RedirectUri":"https://localhost:5005/signin-oidc","AllowedRedirectUris":["https://localhost:5005/signin-oidc"],"SubjectId":"anonymous","ResponseType":"id_token","ResponseMode":"form_post","GrantType":"implicit","RequestedScopes":"openid profile","State":null,"UiLocales":null,"Nonce":null,"AuthenticationContextReferenceClasses":null,"DisplayMode":null,"PromptMode":null,"MaxAge":null,"LoginHint":null,"SessionId":null,"Raw":{"client_id":"mvc","response_type":"id_token","scope":"openid profile","redirect_uri":"https://localhost:5005/signin-oidc","acr_values":"idp:Google","response_mode":"form_post"},"$type":"AuthorizeRequestValidationLog"}
2019-05-20 18:35:53.286 +07:00 [ERR] Request validation failed
2019-05-20 18:35:53.286 +07:00 [INF] {"ClientId":"mvc","ClientName":"MVC Client","RedirectUri":"https://localhost:5005/signin-oidc","AllowedRedirectUris":["https://localhost:5005/signin-oidc"],"SubjectId":"anonymous","ResponseType":"id_token","ResponseMode":"form_post","GrantType":"implicit","RequestedScopes":"openid profile","State":null,"UiLocales":null,"Nonce":null,"AuthenticationContextReferenceClasses":null,"DisplayMode":null,"PromptMode":null,"MaxAge":null,"LoginHint":null,"SessionId":null,"Raw":{"client_id":"mvc","response_type":"id_token","scope":"openid profile","redirect_uri":"https://localhost:5005/signin-oidc","acr_values":"idp:Google","response_mode":"form_post"},"$type":"AuthorizeRequestValidationLog"}
2019-05-20 18:37:33.719 +07:00 [INF] You are using the in-memory version of the persisted grant store. This will store consent decisions, authorization codes, refresh and reference tokens in memory only. If you are using any of those features in production, you want to switch to a different store implementation.
2019-05-20 18:37:33.754 +07:00 [INF] Using the default authentication scheme idsrv for IdentityServer
2019-05-20 18:37:33.757 +07:00 [DBG] Using idsrv as default ASP.NET Core scheme for authentication
2019-05-20 18:37:33.757 +07:00 [DBG] Using idsrv as default ASP.NET Core scheme for sign-in
2019-05-20 18:37:33.757 +07:00 [DBG] Using idsrv as default ASP.NET Core scheme for sign-out
2019-05-20 18:37:33.757 +07:00 [DBG] Using idsrv as default ASP.NET Core scheme for challenge
2019-05-20 18:37:33.758 +07:00 [DBG] Using idsrv as default ASP.NET Core scheme for forbid
2019-05-20 18:37:34.346 +07:00 [DBG] Login Url: /Account/Login
2019-05-20 18:37:34.348 +07:00 [DBG] Login Return Url Parameter: ReturnUrl
2019-05-20 18:37:34.348 +07:00 [DBG] Logout Url: /Account/Logout
2019-05-20 18:37:34.348 +07:00 [DBG] ConsentUrl Url: /consent
2019-05-20 18:37:34.348 +07:00 [DBG] Consent Return Url Parameter: returnUrl
2019-05-20 18:37:34.348 +07:00 [DBG] Error Url: /home/error
2019-05-20 18:37:34.348 +07:00 [DBG] Error Id Parameter: errorId
2019-05-20 18:38:03.572 +07:00 [DBG] Request path /connect/authorize matched to endpoint type Authorize
2019-05-20 18:38:03.578 +07:00 [DBG] Endpoint enabled: Authorize, successfully created handler: IdentityServer4.Endpoints.AuthorizeEndpoint
2019-05-20 18:38:03.578 +07:00 [INF] Invoking IdentityServer endpoint: IdentityServer4.Endpoints.AuthorizeEndpoint for /connect/authorize
2019-05-20 18:38:03.583 +07:00 [DBG] Start authorize request
2019-05-20 18:38:03.591 +07:00 [DBG] No user present in authorize request
2019-05-20 18:38:03.596 +07:00 [DBG] Start authorize request protocol validation
2019-05-20 18:38:03.612 +07:00 [DBG] client configuration validation for client mvc succeeded.
2019-05-20 18:38:03.651 +07:00 [DBG] Calling into custom validator: IdentityServer4.Validation.DefaultCustomAuthorizeRequestValidator
2019-05-20 18:38:03.666 +07:00 [INF] ValidatedAuthorizeRequest
{"ClientId":"mvc","ClientName":"MVC Client","RedirectUri":"https://localhost:5005/signin-oidc","AllowedRedirectUris":["https://localhost:5005/signin-oidc"],"SubjectId":"anonymous","ResponseType":"id_token","ResponseMode":"form_post","GrantType":"implicit","RequestedScopes":"openid profile","State":null,"UiLocales":null,"Nonce":"636939487073733482.NDE1MGU5OTQtYWI0Ny00ZTU1LTg3YTQtNjllM2Y1MGY5MjlmMWQxYzgzYmYtNzYwYi00M2JhLTgyZWYtNGExNWYyYWYxOTAz","AuthenticationContextReferenceClasses":["idp:Google"],"DisplayMode":null,"PromptMode":null,"MaxAge":null,"LoginHint":null,"SessionId":null,"Raw":{"client_id":"mvc","response_type":"id_token","scope":"openid profile","redirect_uri":"https://localhost:5005/signin-oidc","nonce":"636939487073733482.NDE1MGU5OTQtYWI0Ny00ZTU1LTg3YTQtNjllM2Y1MGY5MjlmMWQxYzgzYmYtNzYwYi00M2JhLTgyZWYtNGExNWYyYWYxOTAz","acr_values":"idp:Google","response_mode":"form_post"},"$type":"AuthorizeRequestValidationLog"}
2019-05-20 18:38:03.687 +07:00 [INF] Showing login: User is not authenticated
2019-05-20 18:38:09.978 +07:00 [DBG] Start authorize request protocol validation
2019-05-20 18:38:09.978 +07:00 [DBG] client configuration validation for client mvc succeeded.
2019-05-20 18:38:09.978 +07:00 [DBG] Calling into custom validator: IdentityServer4.Validation.DefaultCustomAuthorizeRequestValidator
2019-05-20 18:38:26.982 +07:00 [INF] AuthenticationScheme: Google was challenged.
2019-05-20 18:38:39.733 +07:00 [DBG] Request path /connect/authorize matched to endpoint type Authorize
2019-05-20 18:38:39.733 +07:00 [DBG] Endpoint enabled: Authorize, successfully created handler: IdentityServer4.Endpoints.AuthorizeEndpoint
2019-05-20 18:38:39.733 +07:00 [INF] Invoking IdentityServer endpoint: IdentityServer4.Endpoints.AuthorizeEndpoint for /connect/authorize
2019-05-20 18:38:39.733 +07:00 [DBG] Start authorize request
2019-05-20 18:38:39.734 +07:00 [DBG] No user present in authorize request
2019-05-20 18:38:39.734 +07:00 [DBG] Start authorize request protocol validation
2019-05-20 18:38:39.734 +07:00 [DBG] client configuration validation for client mvc succeeded.
2019-05-20 18:38:39.734 +07:00 [DBG] Calling into custom validator: IdentityServer4.Validation.DefaultCustomAuthorizeRequestValidator
2019-05-20 18:38:39.735 +07:00 [INF] ValidatedAuthorizeRequest
{"ClientId":"mvc","ClientName":"MVC Client","RedirectUri":"https://localhost:5005/signin-oidc","AllowedRedirectUris":["https://localhost:5005/signin-oidc"],"SubjectId":"anonymous","ResponseType":"id_token","ResponseMode":"form_post","GrantType":"implicit","RequestedScopes":"openid profile","State":null,"UiLocales":null,"Nonce":"636939487073733482.NDE1MGU5OTQtYWI0Ny00ZTU1LTg3YTQtNjllM2Y1MGY5MjlmMWQxYzgzYmYtNzYwYi00M2JhLTgyZWYtNGExNWYyYWYxOTAz","AuthenticationContextReferenceClasses":["idp:Google"],"DisplayMode":null,"PromptMode":null,"MaxAge":null,"LoginHint":null,"SessionId":null,"Raw":{"client_id":"mvc","response_type":"id_token","scope":"openid profile","redirect_uri":"https://localhost:5005/signin-oidc","nonce":"636939487073733482.NDE1MGU5OTQtYWI0Ny00ZTU1LTg3YTQtNjllM2Y1MGY5MjlmMWQxYzgzYmYtNzYwYi00M2JhLTgyZWYtNGExNWYyYWYxOTAz","acr_values":"idp:Google","response_mode":"form_post"},"$type":"AuthorizeRequestValidationLog"}
2019-05-20 18:38:39.735 +07:00 [INF] Showing login: User is not authenticated
2019-05-20 18:38:43.015 +07:00 [DBG] Start authorize request protocol validation
2019-05-20 18:38:43.016 +07:00 [DBG] client configuration validation for client mvc succeeded.
2019-05-20 18:38:43.016 +07:00 [DBG] Calling into custom validator: IdentityServer4.Validation.DefaultCustomAuthorizeRequestValidator
2019-05-20 18:38:44.382 +07:00 [INF] AuthenticationScheme: Google was challenged.
2019-05-20 18:39:27.464 +07:00 [INF] AuthenticationScheme: idsrv.external signed in.
2019-05-20 18:39:29.595 +07:00 [DBG] Augmenting SignInContext
2019-05-20 18:39:29.597 +07:00 [DBG] Adding amr claim with value: external
2019-05-20 18:39:29.602 +07:00 [INF] AuthenticationScheme: idsrv signed in.
2019-05-20 18:39:29.606 +07:00 [INF] AuthenticationScheme: idsrv.external signed out.
2019-05-20 18:39:29.606 +07:00 [DBG] Start authorize request protocol validation
2019-05-20 18:39:29.606 +07:00 [DBG] client configuration validation for client mvc succeeded.
2019-05-20 18:39:29.606 +07:00 [DBG] Calling into custom validator: IdentityServer4.Validation.DefaultCustomAuthorizeRequestValidator
2019-05-20 18:39:29.608 +07:00 [DBG] client configuration validation for client mvc succeeded.
2019-05-20 18:39:29.613 +07:00 [DBG] Request path /connect/authorize/callback matched to endpoint type Authorize
2019-05-20 18:39:29.614 +07:00 [DBG] Endpoint enabled: Authorize, successfully created handler: IdentityServer4.Endpoints.AuthorizeCallbackEndpoint
2019-05-20 18:39:29.614 +07:00 [INF] Invoking IdentityServer endpoint: IdentityServer4.Endpoints.AuthorizeCallbackEndpoint for /connect/authorize/callback
2019-05-20 18:39:29.621 +07:00 [DBG] Start authorize callback request
2019-05-20 18:39:29.625 +07:00 [DBG] User in authorize request: 5538e8e10f808a2ab39428fc67332659e249088d0a3bbb9f52b361a67222fe7e
2019-05-20 18:39:29.625 +07:00 [DBG] Start authorize request protocol validation
2019-05-20 18:39:29.625 +07:00 [DBG] client configuration validation for client mvc succeeded.
2019-05-20 18:39:29.626 +07:00 [DBG] Calling into custom validator: IdentityServer4.Validation.DefaultCustomAuthorizeRequestValidator
2019-05-20 18:39:29.626 +07:00 [INF] ValidatedAuthorizeRequest
{"ClientId":"mvc","ClientName":"MVC Client","RedirectUri":"https://localhost:5005/signin-oidc","AllowedRedirectUris":["https://localhost:5005/signin-oidc"],"SubjectId":"5538e8e10f808a2ab39428fc67332659e249088d0a3bbb9f52b361a67222fe7e","ResponseType":"id_token","ResponseMode":"form_post","GrantType":"implicit","RequestedScopes":"openid profile","State":null,"UiLocales":null,"Nonce":"636939487073733482.NDE1MGU5OTQtYWI0Ny00ZTU1LTg3YTQtNjllM2Y1MGY5MjlmMWQxYzgzYmYtNzYwYi00M2JhLTgyZWYtNGExNWYyYWYxOTAz","AuthenticationContextReferenceClasses":["idp:Google"],"DisplayMode":null,"PromptMode":null,"MaxAge":null,"LoginHint":null,"SessionId":"c59ab74fba7b1cf85bc5aea76a518620","Raw":{"client_id":"mvc","response_type":"id_token","scope":"openid profile","redirect_uri":"https://localhost:5005/signin-oidc","nonce":"636939487073733482.NDE1MGU5OTQtYWI0Ny00ZTU1LTg3YTQtNjllM2Y1MGY5MjlmMWQxYzgzYmYtNzYwYi00M2JhLTgyZWYtNGExNWYyYWYxOTAz","acr_values":"idp:Google","response_mode":"form_post"},"$type":"AuthorizeRequestValidationLog"}
2019-05-20 18:39:29.628 +07:00 [DBG] IsActive called from: AuthorizeEndpoint
2019-05-20 18:39:29.640 +07:00 [DBG] user_consent grant with value: mvc|5538e8e10f808a2ab39428fc67332659e249088d0a3bbb9f52b361a67222fe7e not found in store.
2019-05-20 18:39:29.640 +07:00 [DBG] Found no prior consent from consent store, consent is required
2019-05-20 18:39:29.641 +07:00 [INF] Showing consent: User has not yet consented
2019-05-20 18:39:29.684 +07:00 [DBG] Start authorize request protocol validation
2019-05-20 18:39:29.685 +07:00 [DBG] client configuration validation for client mvc succeeded.
2019-05-20 18:39:29.685 +07:00 [DBG] Calling into custom validator: IdentityServer4.Validation.DefaultCustomAuthorizeRequestValidator
2019-05-20 18:39:29.685 +07:00 [DBG] client configuration validation for client mvc succeeded.
2019-05-20 18:39:31.950 +07:00 [DBG] CORS request made for path: /consent from origin: null but was ignored because path was not for an allowed IdentityServer CORS endpoint
2019-05-20 18:39:32.020 +07:00 [DBG] Start authorize request protocol validation
2019-05-20 18:39:32.020 +07:00 [DBG] client configuration validation for client mvc succeeded.
2019-05-20 18:39:32.020 +07:00 [DBG] Calling into custom validator: IdentityServer4.Validation.DefaultCustomAuthorizeRequestValidator
2019-05-20 18:39:32.040 +07:00 [DBG] client configuration validation for client mvc succeeded.
2019-05-20 18:39:32.045 +07:00 [DBG] Request path /connect/authorize/callback matched to endpoint type Authorize
2019-05-20 18:39:32.045 +07:00 [DBG] Endpoint enabled: Authorize, successfully created handler: IdentityServer4.Endpoints.AuthorizeCallbackEndpoint
2019-05-20 18:39:32.045 +07:00 [INF] Invoking IdentityServer endpoint: IdentityServer4.Endpoints.AuthorizeCallbackEndpoint for /connect/authorize/callback
2019-05-20 18:39:32.045 +07:00 [DBG] Start authorize callback request
2019-05-20 18:39:32.054 +07:00 [DBG] User in authorize request: 5538e8e10f808a2ab39428fc67332659e249088d0a3bbb9f52b361a67222fe7e
2019-05-20 18:39:32.055 +07:00 [DBG] Start authorize request protocol validation
2019-05-20 18:39:32.055 +07:00 [DBG] client configuration validation for client mvc succeeded.
2019-05-20 18:39:32.055 +07:00 [DBG] Calling into custom validator: IdentityServer4.Validation.DefaultCustomAuthorizeRequestValidator
2019-05-20 18:39:32.056 +07:00 [INF] ValidatedAuthorizeRequest
{"ClientId":"mvc","ClientName":"MVC Client","RedirectUri":"https://localhost:5005/signin-oidc","AllowedRedirectUris":["https://localhost:5005/signin-oidc"],"SubjectId":"5538e8e10f808a2ab39428fc67332659e249088d0a3bbb9f52b361a67222fe7e","ResponseType":"id_token","ResponseMode":"form_post","GrantType":"implicit","RequestedScopes":"openid profile","State":null,"UiLocales":null,"Nonce":"636939487073733482.NDE1MGU5OTQtYWI0Ny00ZTU1LTg3YTQtNjllM2Y1MGY5MjlmMWQxYzgzYmYtNzYwYi00M2JhLTgyZWYtNGExNWYyYWYxOTAz","AuthenticationContextReferenceClasses":["idp:Google"],"DisplayMode":null,"PromptMode":null,"MaxAge":null,"LoginHint":null,"SessionId":"c59ab74fba7b1cf85bc5aea76a518620","Raw":{"client_id":"mvc","response_type":"id_token","scope":"openid profile","redirect_uri":"https://localhost:5005/signin-oidc","nonce":"636939487073733482.NDE1MGU5OTQtYWI0Ny00ZTU1LTg3YTQtNjllM2Y1MGY5MjlmMWQxYzgzYmYtNzYwYi00M2JhLTgyZWYtNGExNWYyYWYxOTAz","acr_values":"idp:Google","response_mode":"form_post"},"$type":"AuthorizeRequestValidationLog"}
2019-05-20 18:39:32.056 +07:00 [DBG] IsActive called from: AuthorizeEndpoint
2019-05-20 18:39:32.056 +07:00 [DBG] user_consent grant with value: mvc|5538e8e10f808a2ab39428fc67332659e249088d0a3bbb9f52b361a67222fe7e not found in store.
2019-05-20 18:39:32.056 +07:00 [DBG] Found no prior consent from consent store, consent is required
2019-05-20 18:39:32.062 +07:00 [INF] User consented to scopes: ["openid","profile"]
2019-05-20 18:39:32.063 +07:00 [DBG] User indicated to remember consent for scopes: ["openid","profile"]
2019-05-20 18:39:32.068 +07:00 [DBG] Client allows remembering consent, and consent given. Updating consent store for subject: 5538e8e10f808a2ab39428fc67332659e249088d0a3bbb9f52b361a67222fe7e
2019-05-20 18:39:32.085 +07:00 [DBG] Creating Implicit Flow response.
2019-05-20 18:39:32.093 +07:00 [DBG] Getting claims for identity token for subject: 5538e8e10f808a2ab39428fc67332659e249088d0a3bbb9f52b361a67222fe7e and client: mvc
2019-05-20 18:39:32.097 +07:00 [DBG] Get profile called for subject 5538e8e10f808a2ab39428fc67332659e249088d0a3bbb9f52b361a67222fe7e from client MVC Client with claim types ["name","family_name","given_name","middle_name","nickname","preferred_username","profile","picture","website","gender","birthdate","zoneinfo","locale","updated_at"] via ClaimsProviderIdentityToken
2019-05-20 18:39:32.101 +07:00 [DBG] Issued claims: ["name","given_name","family_name"]
2019-05-20 18:39:32.179 +07:00 [INF] Authorize endpoint response
{"SubjectId":"5538e8e10f808a2ab39428fc67332659e249088d0a3bbb9f52b361a67222fe7e","ClientId":"mvc","RedirectUri":"https://localhost:5005/signin-oidc","State":null,"Scope":"openid profile","Error":null,"ErrorDescription":null,"$type":"AuthorizeResponseLog"}
2019-05-20 18:39:32.196 +07:00 [DBG] Augmenting SignInContext
2019-05-20 18:39:32.196 +07:00 [INF] AuthenticationScheme: idsrv signed in.
2019-05-20 18:45:36.437 +07:00 [INF] You are using the in-memory version of the persisted grant store. This will store consent decisions, authorization codes, refresh and reference tokens in memory only. If you are using any of those features in production, you want to switch to a different store implementation.
2019-05-20 18:45:36.486 +07:00 [INF] Using the default authentication scheme idsrv for IdentityServer
2019-05-20 18:45:36.490 +07:00 [DBG] Using idsrv as default ASP.NET Core scheme for authentication
2019-05-20 18:45:36.490 +07:00 [DBG] Using idsrv as default ASP.NET Core scheme for sign-in
2019-05-20 18:45:36.490 +07:00 [DBG] Using idsrv as default ASP.NET Core scheme for sign-out
2019-05-20 18:45:36.490 +07:00 [DBG] Using idsrv as default ASP.NET Core scheme for challenge
2019-05-20 18:45:36.490 +07:00 [DBG] Using idsrv as default ASP.NET Core scheme for forbid
2019-05-20 18:45:36.889 +07:00 [DBG] Login Url: /Account/Login
2019-05-20 18:45:36.891 +07:00 [DBG] Login Return Url Parameter: ReturnUrl
2019-05-20 18:45:36.891 +07:00 [DBG] Logout Url: /Account/Logout
2019-05-20 18:45:36.891 +07:00 [DBG] ConsentUrl Url: /consent
2019-05-20 18:45:36.891 +07:00 [DBG] Consent Return Url Parameter: returnUrl
2019-05-20 18:45:36.891 +07:00 [DBG] Error Url: /home/error
2019-05-20 18:45:36.891 +07:00 [DBG] Error Id Parameter: errorId
2019-05-20 18:45:54.688 +07:00 [DBG] Request path /.well-known/openid-configuration matched to endpoint type Discovery
2019-05-20 18:45:54.694 +07:00 [DBG] Endpoint enabled: Discovery, successfully created handler: IdentityServer4.Endpoints.DiscoveryEndpoint
2019-05-20 18:45:54.694 +07:00 [INF] Invoking IdentityServer endpoint: IdentityServer4.Endpoints.DiscoveryEndpoint for /.well-known/openid-configuration
2019-05-20 18:45:54.699 +07:00 [DBG] Start discovery request
2019-05-20 18:45:54.818 +07:00 [DBG] Request path /.well-known/openid-configuration/jwks matched to endpoint type Discovery
2019-05-20 18:45:54.819 +07:00 [DBG] Endpoint enabled: Discovery, successfully created handler: IdentityServer4.Endpoints.DiscoveryKeyEndpoint
2019-05-20 18:45:54.819 +07:00 [INF] Invoking IdentityServer endpoint: IdentityServer4.Endpoints.DiscoveryKeyEndpoint for /.well-known/openid-configuration/jwks
2019-05-20 18:45:54.823 +07:00 [DBG] Start key discovery request
2019-05-20 18:45:54.885 +07:00 [DBG] Request path /connect/authorize matched to endpoint type Authorize
2019-05-20 18:45:54.887 +07:00 [DBG] Endpoint enabled: Authorize, successfully created handler: IdentityServer4.Endpoints.AuthorizeEndpoint
2019-05-20 18:45:54.887 +07:00 [INF] Invoking IdentityServer endpoint: IdentityServer4.Endpoints.AuthorizeEndpoint for /connect/authorize
2019-05-20 18:45:54.892 +07:00 [DBG] Start authorize request
2019-05-20 18:45:54.901 +07:00 [DBG] User in authorize request: 5538e8e10f808a2ab39428fc67332659e249088d0a3bbb9f52b361a67222fe7e
2019-05-20 18:45:54.906 +07:00 [DBG] Start authorize request protocol validation
2019-05-20 18:45:54.925 +07:00 [DBG] client configuration validation for client mvc succeeded.
2019-05-20 18:45:54.959 +07:00 [DBG] Calling into custom validator: IdentityServer4.Validation.DefaultCustomAuthorizeRequestValidator
2019-05-20 18:45:54.972 +07:00 [INF] ValidatedAuthorizeRequest
{"ClientId":"mvc","ClientName":"MVC Client","RedirectUri":"https://localhost:5005/signin-oidc","AllowedRedirectUris":["https://localhost:5005/signin-oidc"],"SubjectId":"5538e8e10f808a2ab39428fc67332659e249088d0a3bbb9f52b361a67222fe7e","ResponseType":"id_token","ResponseMode":"form_post","GrantType":"implicit","RequestedScopes":"openid profile","State":"CfDJ8OZ4lQd9IvhDqaosY4UuPgtCkek6htAhPm_L_8F82hOIsMP3WdcWlnnnKtgeIdLNSEzbwJG0iv0V7vQuydr-ysvyQEEJlqRMubAusAixwd1cn_DAPeW_fM5P4zX65p0b8diFBrf9kGhC8yrzSkaShuMDdtAx7A55gjKgLjOz38q_FH-xX1igfbAtflr3rgTzdnEHpZzAUcWtJTaphDSvEht1vlZrrF4exiCt2UuV2t3qhIT-hqzfwah6u4V59sXxpWpzIk18ZGSNhmuBugBma8WBIUC6Pj9xhZvXuOW3ZU68ZXg85q-tCMBQL7ZJ3JhhgA","UiLocales":null,"Nonce":"636939495548548235.NTQ1YTcxMzYtZmNjNC00OGUzLTk1YjAtMGY5YjY5NWViZTkwNGY2NjQzMzQtZGJkYi00YzFjLWJhMjUtNTA2MDE0NWZiODM2","AuthenticationContextReferenceClasses":["Google"],"DisplayMode":null,"PromptMode":null,"MaxAge":null,"LoginHint":null,"SessionId":"c59ab74fba7b1cf85bc5aea76a518620","Raw":{"client_id":"mvc","redirect_uri":"https://localhost:5005/signin-oidc","response_type":"id_token","scope":"openid profile","response_mode":"form_post","nonce":"636939495548548235.NTQ1YTcxMzYtZmNjNC00OGUzLTk1YjAtMGY5YjY5NWViZTkwNGY2NjQzMzQtZGJkYi00YzFjLWJhMjUtNTA2MDE0NWZiODM2","acr_values":"Google","state":"CfDJ8OZ4lQd9IvhDqaosY4UuPgtCkek6htAhPm_L_8F82hOIsMP3WdcWlnnnKtgeIdLNSEzbwJG0iv0V7vQuydr-ysvyQEEJlqRMubAusAixwd1cn_DAPeW_fM5P4zX65p0b8diFBrf9kGhC8yrzSkaShuMDdtAx7A55gjKgLjOz38q_FH-xX1igfbAtflr3rgTzdnEHpZzAUcWtJTaphDSvEht1vlZrrF4exiCt2UuV2t3qhIT-hqzfwah6u4V59sXxpWpzIk18ZGSNhmuBugBma8WBIUC6Pj9xhZvXuOW3ZU68ZXg85q-tCMBQL7ZJ3JhhgA","x-client-SKU":"ID_NETSTANDARD2_0","x-client-ver":"5.3.0.0"},"$type":"AuthorizeRequestValidationLog"}
2019-05-20 18:45:54.992 +07:00 [DBG] IsActive called from: AuthorizeEndpoint
2019-05-20 18:45:54.992 +07:00 [INF] Showing login: User is not active
2019-05-20 18:46:00.314 +07:00 [DBG] Start authorize request protocol validation
2019-05-20 18:46:00.314 +07:00 [DBG] client configuration validation for client mvc succeeded.
2019-05-20 18:46:00.314 +07:00 [DBG] Calling into custom validator: IdentityServer4.Validation.DefaultCustomAuthorizeRequestValidator
2019-05-20 18:46:00.318 +07:00 [DBG] client configuration validation for client mvc succeeded.
2019-05-20 18:47:37.993 +07:00 [INF] You are using the in-memory version of the persisted grant store. This will store consent decisions, authorization codes, refresh and reference tokens in memory only. If you are using any of those features in production, you want to switch to a different store implementation.
2019-05-20 18:47:38.026 +07:00 [INF] Using the default authentication scheme idsrv for IdentityServer
2019-05-20 18:47:38.029 +07:00 [DBG] Using idsrv as default ASP.NET Core scheme for authentication
2019-05-20 18:47:38.029 +07:00 [DBG] Using idsrv as default ASP.NET Core scheme for sign-in
2019-05-20 18:47:38.029 +07:00 [DBG] Using idsrv as default ASP.NET Core scheme for sign-out
2019-05-20 18:47:38.029 +07:00 [DBG] Using idsrv as default ASP.NET Core scheme for challenge
2019-05-20 18:47:38.029 +07:00 [DBG] Using idsrv as default ASP.NET Core scheme for forbid
2019-05-20 18:47:38.462 +07:00 [DBG] Login Url: /Account/Login
2019-05-20 18:47:38.464 +07:00 [DBG] Login Return Url Parameter: ReturnUrl
2019-05-20 18:47:38.464 +07:00 [DBG] Logout Url: /Account/Logout
2019-05-20 18:47:38.464 +07:00 [DBG] ConsentUrl Url: /consent
2019-05-20 18:47:38.464 +07:00 [DBG] Consent Return Url Parameter: returnUrl
2019-05-20 18:47:38.464 +07:00 [DBG] Error Url: /home/error
2019-05-20 18:47:38.464 +07:00 [DBG] Error Id Parameter: errorId
2019-05-20 18:47:54.192 +07:00 [DBG] Request path /.well-known/openid-configuration matched to endpoint type Discovery
2019-05-20 18:47:54.195 +07:00 [DBG] Endpoint enabled: Discovery, successfully created handler: IdentityServer4.Endpoints.DiscoveryEndpoint
2019-05-20 18:47:54.195 +07:00 [INF] Invoking IdentityServer endpoint: IdentityServer4.Endpoints.DiscoveryEndpoint for /.well-known/openid-configuration
2019-05-20 18:47:54.199 +07:00 [DBG] Start discovery request
2019-05-20 18:47:54.308 +07:00 [DBG] Request path /.well-known/openid-configuration/jwks matched to endpoint type Discovery
2019-05-20 18:47:54.308 +07:00 [DBG] Endpoint enabled: Discovery, successfully created handler: IdentityServer4.Endpoints.DiscoveryKeyEndpoint
2019-05-20 18:47:54.308 +07:00 [INF] Invoking IdentityServer endpoint: IdentityServer4.Endpoints.DiscoveryKeyEndpoint for /.well-known/openid-configuration/jwks
2019-05-20 18:47:54.312 +07:00 [DBG] Start key discovery request
2019-05-20 18:47:54.376 +07:00 [DBG] Request path /connect/authorize matched to endpoint type Authorize
2019-05-20 18:47:54.379 +07:00 [DBG] Endpoint enabled: Authorize, successfully created handler: IdentityServer4.Endpoints.AuthorizeEndpoint
2019-05-20 18:47:54.379 +07:00 [INF] Invoking IdentityServer endpoint: IdentityServer4.Endpoints.AuthorizeEndpoint for /connect/authorize
2019-05-20 18:47:54.384 +07:00 [DBG] Start authorize request
2019-05-20 18:47:54.397 +07:00 [DBG] User in authorize request: 5538e8e10f808a2ab39428fc67332659e249088d0a3bbb9f52b361a67222fe7e
2019-05-20 18:47:54.404 +07:00 [DBG] Start authorize request protocol validation
2019-05-20 18:47:54.424 +07:00 [DBG] client configuration validation for client mvc succeeded.
2019-05-20 18:47:54.455 +07:00 [DBG] Calling into custom validator: IdentityServer4.Validation.DefaultCustomAuthorizeRequestValidator
2019-05-20 18:47:54.472 +07:00 [INF] ValidatedAuthorizeRequest
{"ClientId":"mvc","ClientName":"MVC Client","RedirectUri":"https://localhost:5005/signin-oidc","AllowedRedirectUris":["https://localhost:5005/signin-oidc"],"SubjectId":"5538e8e10f808a2ab39428fc67332659e249088d0a3bbb9f52b361a67222fe7e","ResponseType":"id_token","ResponseMode":"form_post","GrantType":"implicit","RequestedScopes":"openid profile","State":"CfDJ8OZ4lQd9IvhDqaosY4UuPgvcmNhCHPLn6a4HSSZLhA55tWlkZ8wGmJg2jNCbyGUJBovJNj_eUtQI0bSYrHAS3GqYsL1Dtuf23K9s9Bqg9xMzDvV3vUW5pXvDu9j2fVlvk4sXil92K3IpnKKWtSSmf2HJ_ri3Cayb3IZ9Z4Dp-DhXnG2cMC4OJl1gCj-HhGjeUnAUFfDa9-9Sluzb4YwPlnlv8Ctqj1wP61o24mT6SvOVrQv0n_b2E4Kw6-x5jandMpGtzEDtAgTbUhr0byHCqJcchcLnueFR_meMJsUIaZmrClh3xxfdytwUxrmv1Xu4Jg","UiLocales":null,"Nonce":"636939496743456654.YzhmZjI5NjUtZjllNy00OWQxLTllNzctN2QwZjNkYmFjZGU0ZTRmYzk1ZTAtOTE5OS00OTc0LTkzZjUtMDAzODQzOTI2NDdh","AuthenticationContextReferenceClasses":["idp:Google"],"DisplayMode":null,"PromptMode":null,"MaxAge":null,"LoginHint":null,"SessionId":"c59ab74fba7b1cf85bc5aea76a518620","Raw":{"client_id":"mvc","redirect_uri":"https://localhost:5005/signin-oidc","response_type":"id_token","scope":"openid profile","response_mode":"form_post","nonce":"636939496743456654.YzhmZjI5NjUtZjllNy00OWQxLTllNzctN2QwZjNkYmFjZGU0ZTRmYzk1ZTAtOTE5OS00OTc0LTkzZjUtMDAzODQzOTI2NDdh","acr_values":"idp:Google","state":"CfDJ8OZ4lQd9IvhDqaosY4UuPgvcmNhCHPLn6a4HSSZLhA55tWlkZ8wGmJg2jNCbyGUJBovJNj_eUtQI0bSYrHAS3GqYsL1Dtuf23K9s9Bqg9xMzDvV3vUW5pXvDu9j2fVlvk4sXil92K3IpnKKWtSSmf2HJ_ri3Cayb3IZ9Z4Dp-DhXnG2cMC4OJl1gCj-HhGjeUnAUFfDa9-9Sluzb4YwPlnlv8Ctqj1wP61o24mT6SvOVrQv0n_b2E4Kw6-x5jandMpGtzEDtAgTbUhr0byHCqJcchcLnueFR_meMJsUIaZmrClh3xxfdytwUxrmv1Xu4Jg","x-client-SKU":"ID_NETSTANDARD2_0","x-client-ver":"5.3.0.0"},"$type":"AuthorizeRequestValidationLog"}
2019-05-20 18:47:54.493 +07:00 [DBG] IsActive called from: AuthorizeEndpoint
2019-05-20 18:47:54.493 +07:00 [INF] Showing login: User is not active
2019-05-20 18:47:56.513 +07:00 [DBG] Start authorize request protocol validation
2019-05-20 18:47:56.513 +07:00 [DBG] client configuration validation for client mvc succeeded.
2019-05-20 18:47:56.514 +07:00 [DBG] Calling into custom validator: IdentityServer4.Validation.DefaultCustomAuthorizeRequestValidator
2019-05-20 18:47:58.184 +07:00 [INF] AuthenticationScheme: Google was challenged.
2019-05-20 18:47:59.240 +07:00 [INF] AuthenticationScheme: idsrv.external signed in.
2019-05-20 18:48:00.376 +07:00 [DBG] Augmenting SignInContext
2019-05-20 18:48:00.379 +07:00 [DBG] Adding amr claim with value: external
2019-05-20 18:48:00.384 +07:00 [INF] AuthenticationScheme: idsrv signed in.
2019-05-20 18:48:00.393 +07:00 [INF] AuthenticationScheme: idsrv.external signed out.
2019-05-20 18:48:00.393 +07:00 [DBG] Start authorize request protocol validation
2019-05-20 18:48:00.393 +07:00 [DBG] client configuration validation for client mvc succeeded.
2019-05-20 18:48:00.394 +07:00 [DBG] Calling into custom validator: IdentityServer4.Validation.DefaultCustomAuthorizeRequestValidator
2019-05-20 18:48:00.395 +07:00 [DBG] client configuration validation for client mvc succeeded.
2019-05-20 18:48:00.403 +07:00 [DBG] Request path /connect/authorize/callback matched to endpoint type Authorize
2019-05-20 18:48:00.404 +07:00 [DBG] Endpoint enabled: Authorize, successfully created handler: IdentityServer4.Endpoints.AuthorizeCallbackEndpoint
2019-05-20 18:48:00.404 +07:00 [INF] Invoking IdentityServer endpoint: IdentityServer4.Endpoints.AuthorizeCallbackEndpoint for /connect/authorize/callback
2019-05-20 18:48:00.410 +07:00 [DBG] Start authorize callback request
2019-05-20 18:48:00.416 +07:00 [DBG] User in authorize request: 717e3a2d408e085899b44cc71170b49ff3e2d5f00c67c9d6fa19aab8a5b1578d
2019-05-20 18:48:00.417 +07:00 [DBG] Start authorize request protocol validation
2019-05-20 18:48:00.417 +07:00 [DBG] client configuration validation for client mvc succeeded.
2019-05-20 18:48:00.417 +07:00 [DBG] Calling into custom validator: IdentityServer4.Validation.DefaultCustomAuthorizeRequestValidator
2019-05-20 18:48:00.418 +07:00 [INF] ValidatedAuthorizeRequest
{"ClientId":"mvc","ClientName":"MVC Client","RedirectUri":"https://localhost:5005/signin-oidc","AllowedRedirectUris":["https://localhost:5005/signin-oidc"],"SubjectId":"717e3a2d408e085899b44cc71170b49ff3e2d5f00c67c9d6fa19aab8a5b1578d","ResponseType":"id_token","ResponseMode":"form_post","GrantType":"implicit","RequestedScopes":"openid profile","State":"CfDJ8OZ4lQd9IvhDqaosY4UuPgvcmNhCHPLn6a4HSSZLhA55tWlkZ8wGmJg2jNCbyGUJBovJNj_eUtQI0bSYrHAS3GqYsL1Dtuf23K9s9Bqg9xMzDvV3vUW5pXvDu9j2fVlvk4sXil92K3IpnKKWtSSmf2HJ_ri3Cayb3IZ9Z4Dp-DhXnG2cMC4OJl1gCj-HhGjeUnAUFfDa9-9Sluzb4YwPlnlv8Ctqj1wP61o24mT6SvOVrQv0n_b2E4Kw6-x5jandMpGtzEDtAgTbUhr0byHCqJcchcLnueFR_meMJsUIaZmrClh3xxfdytwUxrmv1Xu4Jg","UiLocales":null,"Nonce":"636939496743456654.YzhmZjI5NjUtZjllNy00OWQxLTllNzctN2QwZjNkYmFjZGU0ZTRmYzk1ZTAtOTE5OS00OTc0LTkzZjUtMDAzODQzOTI2NDdh","AuthenticationContextReferenceClasses":["idp:Google"],"DisplayMode":null,"PromptMode":null,"MaxAge":null,"LoginHint":null,"SessionId":"b2e43d9dce9c90160038479005bb1bb0","Raw":{"client_id":"mvc","redirect_uri":"https://localhost:5005/signin-oidc","response_type":"id_token","scope":"openid profile","response_mode":"form_post","nonce":"636939496743456654.YzhmZjI5NjUtZjllNy00OWQxLTllNzctN2QwZjNkYmFjZGU0ZTRmYzk1ZTAtOTE5OS00OTc0LTkzZjUtMDAzODQzOTI2NDdh","acr_values":"idp:Google","state":"CfDJ8OZ4lQd9IvhDqaosY4UuPgvcmNhCHPLn6a4HSSZLhA55tWlkZ8wGmJg2jNCbyGUJBovJNj_eUtQI0bSYrHAS3GqYsL1Dtuf23K9s9Bqg9xMzDvV3vUW5pXvDu9j2fVlvk4sXil92K3IpnKKWtSSmf2HJ_ri3Cayb3IZ9Z4Dp-DhXnG2cMC4OJl1gCj-HhGjeUnAUFfDa9-9Sluzb4YwPlnlv8Ctqj1wP61o24mT6SvOVrQv0n_b2E4Kw6-x5jandMpGtzEDtAgTbUhr0byHCqJcchcLnueFR_meMJsUIaZmrClh3xxfdytwUxrmv1Xu4Jg","x-client-SKU":"ID_NETSTANDARD2_0","x-client-ver":"5.3.0.0"},"$type":"AuthorizeRequestValidationLog"}
2019-05-20 18:48:00.418 +07:00 [DBG] IsActive called from: AuthorizeEndpoint
2019-05-20 18:48:00.435 +07:00 [DBG] user_consent grant with value: mvc|717e3a2d408e085899b44cc71170b49ff3e2d5f00c67c9d6fa19aab8a5b1578d not found in store.
2019-05-20 18:48:00.435 +07:00 [DBG] Found no prior consent from consent store, consent is required
2019-05-20 18:48:00.435 +07:00 [INF] Showing consent: User has not yet consented
2019-05-20 18:48:00.487 +07:00 [DBG] Start authorize request protocol validation
2019-05-20 18:48:00.487 +07:00 [DBG] client configuration validation for client mvc succeeded.
2019-05-20 18:48:00.488 +07:00 [DBG] Calling into custom validator: IdentityServer4.Validation.DefaultCustomAuthorizeRequestValidator
2019-05-20 18:48:00.488 +07:00 [DBG] client configuration validation for client mvc succeeded.
2019-05-20 18:48:06.100 +07:00 [DBG] CORS request made for path: /consent from origin: null but was ignored because path was not for an allowed IdentityServer CORS endpoint
2019-05-20 18:48:06.160 +07:00 [DBG] Start authorize request protocol validation
2019-05-20 18:48:06.160 +07:00 [DBG] client configuration validation for client mvc succeeded.
2019-05-20 18:48:06.160 +07:00 [DBG] Calling into custom validator: IdentityServer4.Validation.DefaultCustomAuthorizeRequestValidator
2019-05-20 18:48:06.172 +07:00 [DBG] client configuration validation for client mvc succeeded.
2019-05-20 18:48:06.177 +07:00 [DBG] Request path /connect/authorize/callback matched to endpoint type Authorize
2019-05-20 18:48:06.178 +07:00 [DBG] Endpoint enabled: Authorize, successfully created handler: IdentityServer4.Endpoints.AuthorizeCallbackEndpoint
2019-05-20 18:48:06.178 +07:00 [INF] Invoking IdentityServer endpoint: IdentityServer4.Endpoints.AuthorizeCallbackEndpoint for /connect/authorize/callback
2019-05-20 18:48:06.178 +07:00 [DBG] Start authorize callback request
2019-05-20 18:48:06.182 +07:00 [DBG] User in authorize request: 717e3a2d408e085899b44cc71170b49ff3e2d5f00c67c9d6fa19aab8a5b1578d
2019-05-20 18:48:06.183 +07:00 [DBG] Start authorize request protocol validation
2019-05-20 18:48:06.183 +07:00 [DBG] client configuration validation for client mvc succeeded.
2019-05-20 18:48:06.183 +07:00 [DBG] Calling into custom validator: IdentityServer4.Validation.DefaultCustomAuthorizeRequestValidator
2019-05-20 18:48:06.183 +07:00 [INF] ValidatedAuthorizeRequest
{"ClientId":"mvc","ClientName":"MVC Client","RedirectUri":"https://localhost:5005/signin-oidc","AllowedRedirectUris":["https://localhost:5005/signin-oidc"],"SubjectId":"717e3a2d408e085899b44cc71170b49ff3e2d5f00c67c9d6fa19aab8a5b1578d","ResponseType":"id_token","ResponseMode":"form_post","GrantType":"implicit","RequestedScopes":"openid profile","State":"CfDJ8OZ4lQd9IvhDqaosY4UuPgvcmNhCHPLn6a4HSSZLhA55tWlkZ8wGmJg2jNCbyGUJBovJNj_eUtQI0bSYrHAS3GqYsL1Dtuf23K9s9Bqg9xMzDvV3vUW5pXvDu9j2fVlvk4sXil92K3IpnKKWtSSmf2HJ_ri3Cayb3IZ9Z4Dp-DhXnG2cMC4OJl1gCj-HhGjeUnAUFfDa9-9Sluzb4YwPlnlv8Ctqj1wP61o24mT6SvOVrQv0n_b2E4Kw6-x5jandMpGtzEDtAgTbUhr0byHCqJcchcLnueFR_meMJsUIaZmrClh3xxfdytwUxrmv1Xu4Jg","UiLocales":null,"Nonce":"636939496743456654.YzhmZjI5NjUtZjllNy00OWQxLTllNzctN2QwZjNkYmFjZGU0ZTRmYzk1ZTAtOTE5OS00OTc0LTkzZjUtMDAzODQzOTI2NDdh","AuthenticationContextReferenceClasses":["idp:Google"],"DisplayMode":null,"PromptMode":null,"MaxAge":null,"LoginHint":null,"SessionId":"b2e43d9dce9c90160038479005bb1bb0","Raw":{"client_id":"mvc","redirect_uri":"https://localhost:5005/signin-oidc","response_type":"id_token","scope":"openid profile","response_mode":"form_post","nonce":"636939496743456654.YzhmZjI5NjUtZjllNy00OWQxLTllNzctN2QwZjNkYmFjZGU0ZTRmYzk1ZTAtOTE5OS00OTc0LTkzZjUtMDAzODQzOTI2NDdh","acr_values":"idp:Google","state":"CfDJ8OZ4lQd9IvhDqaosY4UuPgvcmNhCHPLn6a4HSSZLhA55tWlkZ8wGmJg2jNCbyGUJBovJNj_eUtQI0bSYrHAS3GqYsL1Dtuf23K9s9Bqg9xMzDvV3vUW5pXvDu9j2fVlvk4sXil92K3IpnKKWtSSmf2HJ_ri3Cayb3IZ9Z4Dp-DhXnG2cMC4OJl1gCj-HhGjeUnAUFfDa9-9Sluzb4YwPlnlv8Ctqj1wP61o24mT6SvOVrQv0n_b2E4Kw6-x5jandMpGtzEDtAgTbUhr0byHCqJcchcLnueFR_meMJsUIaZmrClh3xxfdytwUxrmv1Xu4Jg","x-client-SKU":"ID_NETSTANDARD2_0","x-client-ver":"5.3.0.0"},"$type":"AuthorizeRequestValidationLog"}
2019-05-20 18:48:06.183 +07:00 [DBG] IsActive called from: AuthorizeEndpoint
2019-05-20 18:48:06.183 +07:00 [DBG] user_consent grant with value: mvc|717e3a2d408e085899b44cc71170b49ff3e2d5f00c67c9d6fa19aab8a5b1578d not found in store.
2019-05-20 18:48:06.183 +07:00 [DBG] Found no prior consent from consent store, consent is required
2019-05-20 18:48:06.190 +07:00 [INF] User consented to scopes: ["openid","profile"]
2019-05-20 18:48:06.192 +07:00 [DBG] User indicated to remember consent for scopes: ["openid","profile"]
2019-05-20 18:48:06.197 +07:00 [DBG] Client allows remembering consent, and consent given. Updating consent store for subject: 717e3a2d408e085899b44cc71170b49ff3e2d5f00c67c9d6fa19aab8a5b1578d
2019-05-20 18:48:06.210 +07:00 [DBG] Creating Implicit Flow response.
2019-05-20 18:48:06.220 +07:00 [DBG] Getting claims for identity token for subject: 717e3a2d408e085899b44cc71170b49ff3e2d5f00c67c9d6fa19aab8a5b1578d and client: mvc
2019-05-20 18:48:06.225 +07:00 [DBG] Get profile called for subject 717e3a2d408e085899b44cc71170b49ff3e2d5f00c67c9d6fa19aab8a5b1578d from client MVC Client with claim types ["name","family_name","given_name","middle_name","nickname","preferred_username","profile","picture","website","gender","birthdate","zoneinfo","locale","updated_at"] via ClaimsProviderIdentityToken
2019-05-20 18:48:06.227 +07:00 [DBG] Issued claims: ["name","given_name","family_name"]
2019-05-20 18:48:06.296 +07:00 [INF] Authorize endpoint response
{"SubjectId":"717e3a2d408e085899b44cc71170b49ff3e2d5f00c67c9d6fa19aab8a5b1578d","ClientId":"mvc","RedirectUri":"https://localhost:5005/signin-oidc","State":"CfDJ8OZ4lQd9IvhDqaosY4UuPgvcmNhCHPLn6a4HSSZLhA55tWlkZ8wGmJg2jNCbyGUJBovJNj_eUtQI0bSYrHAS3GqYsL1Dtuf23K9s9Bqg9xMzDvV3vUW5pXvDu9j2fVlvk4sXil92K3IpnKKWtSSmf2HJ_ri3Cayb3IZ9Z4Dp-DhXnG2cMC4OJl1gCj-HhGjeUnAUFfDa9-9Sluzb4YwPlnlv8Ctqj1wP61o24mT6SvOVrQv0n_b2E4Kw6-x5jandMpGtzEDtAgTbUhr0byHCqJcchcLnueFR_meMJsUIaZmrClh3xxfdytwUxrmv1Xu4Jg","Scope":"openid profile","Error":null,"ErrorDescription":null,"$type":"AuthorizeResponseLog"}
2019-05-20 18:48:06.312 +07:00 [DBG] Augmenting SignInContext
2019-05-20 18:48:06.312 +07:00 [INF] AuthenticationScheme: idsrv signed in.
